simulation/qsim/ULA.msim.vcd
$comment
	File created using the following command:
		vcd file ULA.msim.vcd -direction
$end
$date
	Wed Oct 26 21:12:26 2016
$end
$version
	ModelSim Version 10.1d
$end
$timescale
	1ps
$end
$scope module ULA_vlg_vec_tst $end
$var reg 4 ! A [3:0] $end
$var reg 4 " B [3:0] $end
$var reg 3 # S [2:0] $end
$var wire 1 $ F [3] $end
$var wire 1 % F [2] $end
$var wire 1 & F [1] $end
$var wire 1 ' F [0] $end
$var wire 1 ( overflow $end
$var wire 1 ) status $end
$var wire 1 * sampler $end
$scope module i1 $end
$var wire 1 + gnd $end
$var wire 1 , vcc $end
$var wire 1 - unknown $end
$var tri1 1 . devclrn $end
$var tri1 1 / devpor $end
$var tri1 1 0 devoe $end
$var wire 1 1 COMPLEMENTADOR|inst2|inst2~combout $end
$var wire 1 2 SUBTRATOR|inst1|inst1~0_combout $end
$var wire 1 3 SUBTRATOR|inst2|inst1~0_combout $end
$var wire 1 4 SOMADOR|inst1|inst1~0_combout $end
$var wire 1 5 inst|OR0XX~0_combout $end
$var wire 1 6 inst|OR0XX~1_combout $end
$var wire 1 7 inst|OR0XX~2_combout $end
$var wire 1 8 inst|EGL~3_combout $end
$var wire 1 9 inst|EGL~5_combout $end
$var wire 1 : inst|EGL~4_combout $end
$var wire 1 ; inst|EGL~6_combout $end
$var wire 1 < inst|EGL~7_combout $end
$var wire 1 = inst|EGL~9_combout $end
$var wire 1 > inst|EGL~8_combout $end
$var wire 1 ? inst|EGL~2_combout $end
$var wire 1 @ inst|EGL~0_combout $end
$var wire 1 A inst|EGL~1_combout $end
$var wire 1 B inst|EGL~10_combout $end
$var wire 1 C inst|OR30[3]~3_combout $end
$var wire 1 D inst|OR30[3]~1_combout $end
$var wire 1 E inst|OR30[3]~0_combout $end
$var wire 1 F inst|OR30[3]~2_combout $end
$var wire 1 G inst|OR30[3]~4_combout $end
$var wire 1 H COMPLEMENTADOR|inst1|inst2~combout $end
$var wire 1 I inst|OR30[2]~5_combout $end
$var wire 1 J inst|OR30[2]~6_combout $end
$var wire 1 K inst|OR30[2]~7_combout $end
$var wire 1 L inst|OR30[2]~8_combout $end
$var wire 1 M inst|OR30[1]~9_combout $end
$var wire 1 N inst|OR30[1]~10_combout $end
$var wire 1 O inst5|XOR1~0_combout $end
$var wire 1 P inst|OR30[1]~11_combout $end
$var wire 1 Q inst|OR30[1]~12_combout $end
$var wire 1 R inst|OR30[0]~13_combout $end
$var wire 1 S inst|OR30[0]~14_combout $end
$var wire 1 T S~combout [2] $end
$var wire 1 U S~combout [1] $end
$var wire 1 V S~combout [0] $end
$var wire 1 W A~combout [3] $end
$var wire 1 X A~combout [2] $end
$var wire 1 Y A~combout [1] $end
$var wire 1 Z A~combout [0] $end
$var wire 1 [ B~combout [3] $end
$var wire 1 \ B~combout [2] $end
$var wire 1 ] B~combout [1] $end
$var wire 1 ^ B~combout [0] $end
$upscope $end
$upscope $end
$enddefinitions $end
#0
$dumpvars
b0 !
b0 "
b0 #
0'
0&
0%
0$
0(
0)
x*
0+
1,
x-
1.
1/
10
01
12
13
04
05
06
07
08
09
0:
0;
0<
0=
0>
0?
0@
1A
1B
0C
1D
0E
0F
0G
0H
0I
0J
0K
0L
0M
0N
0O
0P
0Q
0R
0S
0V
0U
0T
0Z
0Y
0X
0W
0^
0]
0\
0[
$end
#125
b1 !
1Z
0*
1R
1=
1S
1'
#250
b11 !
b10 !
0Z
1Y
1*
0R
0=
1O
1;
18
0S
1P
1=
1Q
0'
1&
#375
b11 !
1Z
0*
1R
1S
1'
#500
b111 !
b101 !
b100 !
0Z
0Y
1X
1*
0R
0O
19
0S
0P
1K
0Q
1L
0'
0&
1%
#625
b101 !
1Z
0*
1R
1S
1'
#750
b111 !
b110 !
0Z
1Y
1*
0R
1O
0S
1P
1Q
0'
1&
#875
b111 !
1Z
0*
1R
1S
1'
#1000
b1111 !
b1011 !
b1001 !
b1000 !
0Z
0Y
0X
1W
1*
0R
0O
0;
08
09
1:
0S
0P
1<
0=
0K
1C
0Q
1>
0L
1G
0'
0&
0%
1$
#1125
b1001 !
1Z
0*
1R
1S
1'
#1250
b1011 !
b1010 !
0Z
1Y
1*
0R
1O
1;
18
0S
1P
1Q
0'
1&
#1375
b1011 !
1Z
0*
1R
1S
1'
#1500
b1111 !
b1101 !
b1100 !
0Z
0Y
1X
1*
0R
0O
19
0S
0P
1K
0Q
1L
0'
0&
1%
#1625
b1101 !
1Z
0*
1R
1S
1'
#1750
b1111 !
b1110 !
0Z
1Y
1*
0R
1O
0S
1P
1Q
0'
1&
#1875
b1111 !
1Z
0*
1R
1S
1'
#2000
b1 "
b111 !
b11 !
b1 !
b0 !
0Z
0Y
0X
0W
1^
1*
02
0O
0;
08
09
0:
1N
1H
11
0K
03
0P
0<
0C
1J
1F
0L
0Q
0G
0%
0&
0$
#2125
b1 !
1Z
0*
0R
1P
0>
12
0S
1Q
13
0'
1&
#2250
b11 !
b10 !
0Z
1Y
1*
1R
0P
1>
1O
1;
18
1S
0Q
1P
0>
1=
1Q
1'
0&
1&
#2375
b11 !
1Z
0*
0R
0P
14
0S
0Q
1K
1L
0'
0&
1%
#2500
b111 !
b101 !
b100 !
0Z
0Y
1X
1*
1R
1P
04
02
0O
19
15
1S
1Q
05
0P
1C
16
0C
06
0Q
1G
17
1'
1&
0G
07
0&
1$
1(
0$
0(
#2625
b101 !
1Z
0*
0R
1P
12
0S
1Q
0'
1&
#2750
b111 !
b110 !
0Z
1Y
1*
1R
0P
1O
1S
0Q
1P
1Q
1'
0&
1&
#2875
b111 !
1Z
0*
0R
0P
14
0S
0Q
0K
15
0L
1C
16
0'
0&
1G
17
0%
1$
1(
#3000
b1111 !
b1011 !
b1001 !
b1000 !
0Z
0Y
0X
1W
1*
1R
1P
04
02
0O
0;
08
09
05
1:
06
1S
1Q
03
0P
1<
1>
0=
07
16
0Q
1'
1&
0(
17
0&
1(
#3125
b1001 !
1Z
0*
0R
1P
12
0S
1Q
13
06
0'
1&
07
0(
#3250
b1011 !
b1010 !
0Z
1Y
1*
1R
0P
1O
1;
18
1S
0Q
1P
1Q
1'
0&
1&
#3375
b1011 !
1Z
0*
0R
0P
14
0S
0Q
1K
1L
0'
0&
1%
#3500
b1111 !
b1101 !
b1100 !
0Z
0Y
1X
1*
1R
1P
04
02
0O
19
15
1S
1Q
05
0P
0C
1C
0Q
0G
1'
1&
1G
0&
0$
1$
#3625
b1101 !
1Z
0*
0R
1P
12
0S
1Q
0'
1&
#3750
b1111 !
b1110 !
0Z
1Y
1*
1R
0P
1O
1S
0Q
1P
1Q
1'
0&
1&
#3875
b1111 !
1Z
0*
0R
0P
14
0S
0Q
0K
15
0L
0C
0'
0&
0G
0%
0$
#4000
b11 "
b10 "
b111 !
b11 !
b1 !
b0 !
0Z
0Y
0X
0W
0^
1]
1*
1P
04
02
0;
08
09
05
0:
16
1Q
03
06
17
07
1&
1(
0(
#4125
b1 !
1Z
0*
1R
1S
1'
#4250
b11 !
b10 !
0Z
1Y
1*
0R
14
12
0O
1;
0S
1K
13
0P
0<
1L
0Q
0>
0'
1%
0&
#4375
b11 !
1Z
0*
1R
1=
1S
1'
#4500
b111 !
b101 !
b100 !
0Z
0Y
1X
1*
0R
0=
04
02
1O
18
19
15
0S
05
1P
1=
1C
16
0C
06
1Q
1G
17
0'
0G
07
1&
1$
1(
0$
0(
#4625
b101 !
1Z
0*
1R
1S
1'
#4750
b111 !
b110 !
0Z
1Y
1*
0R
14
12
0O
0S
0K
15
0P
0L
1C
16
0Q
0'
1G
17
0%
0&
1$
1(
#4875
b111 !
1Z
0*
1R
1S
1'
#5000
b1111 !
b1011 !
b1001 !
b1000 !
0Z
0Y
0X
1W
1*
0R
04
02
1O
0;
08
09
05
1:
06
0S
03
1P
1<
0=
07
16
1Q
1>
0'
0(
17
1&
1(
#5125
b1001 !
1Z
0*
1R
1S
1'
#5250
b1011 !
b1010 !
0Z
1Y
1*
0R
14
12
0O
1;
0S
1K
13
0P
1L
06
0Q
0'
07
1%
0&
0(
#5375
b1011 !
1Z
0*
1R
1S
1'
#5500
b1111 !
b1101 !
b1100 !
0Z
0Y
1X
1*
0R
04
02
1O
18
19
15
0S
05
1P
0C
1C
1Q
0G
0'
1G
1&
0$
1$
#5625
b1101 !
1Z
0*
1R
1S
1'
#5750
b1111 !
b1110 !
0Z
1Y
1*
0R
14
12
0O
0S
0K
15
0P
0L
0C
0Q
0'
0G
0%
0&
0$
#5875
b1111 !
1Z
0*
1R
1S
1'
#6000
b11 "
b111 !
b11 !
b1 !
b0 !
0Z
0Y
0X
0W
1^
1*
04
02
1O
0;
08
09
05
0:
16
0N
03
1P
06
17
1Q
07
1(
1&
0(
#6125
b1 !
1Z
0*
0R
0P
14
0S
0Q
1K
1L
0'
0&
1%
#6250
b11 !
b10 !
0Z
1Y
1*
1R
1P
0O
1;
1S
1Q
0P
0<
0Q
1'
1&
0&
#6375
b11 !
1Z
0*
0R
1P
0>
12
0S
1Q
13
0'
1&
#6500
b111 !
b101 !
b100 !
0Z
0Y
1X
1*
1R
0P
1>
04
02
1O
18
19
15
1S
0Q
05
1P
0>
1=
1C
16
0C
06
1Q
1G
17
1'
0&
0G
07
1&
1$
1(
0$
0(
#6625
b101 !
1Z
0*
0R
0P
14
0S
0Q
0K
15
0L
1C
16
0'
0&
1G
17
0%
1$
1(
#6750
b111 !
b110 !
0Z
1Y
1*
1R
1P
0O
1S
1Q
0P
0Q
1'
1&
0&
#6875
b111 !
1Z
0*
0R
1P
12
0S
1Q
0'
1&
#7000
b1111 !
b1011 !
b1001 !
b1000 !
0Z
0Y
0X
1W
1*
1R
0P
04
02
1O
0;
08
09
05
1:
06
1S
0Q
03
1P
1<
1>
0=
07
16
1Q
1'
0&
0(
17
1&
1(
#7125
b1001 !
1Z
0*
0R
0P
14
0S
0Q
1K
1L
0'
0&
1%
#7250
b1011 !
b1010 !
0Z
1Y
1*
1R
1P
0O
1;
1S
1Q
0P
0Q
1'
1&
0&
#7375
b1011 !
1Z
0*
0R
1P
12
0S
1Q
13
06
0'
1&
07
0(
#7500
b1111 !
b1101 !
b1100 !
0Z
0Y
1X
1*
1R
0P
04
02
1O
18
19
15
1S
0Q
05
1P
0C
1C
1Q
0G
1'
0&
1G
1&
0$
1$
#7625
b1101 !
1Z
0*
0R
0P
14
0S
0Q
0K
15
0L
0C
0'
0&
0G
0%
0$
#7750
b1111 !
b1110 !
0Z
1Y
1*
1R
1P
0O
1S
1Q
0P
0Q
1'
1&
0&
#7875
b1111 !
1Z
0*
0R
1P
12
0S
1Q
0'
1&
#8000
b111 "
b101 "
b100 "
b111 !
b11 !
b1 !
b0 !
0Z
0Y
0X
0W
0^
0]
1\
1*
0P
04
0;
08
03
0:
16
0H
0J
0Q
1K
05
1C
17
1J
1L
0C
06
1G
0&
1(
0G
07
1%
1$
0$
0(
#8125
b1 !
1Z
0*
1R
1S
1'
#8250
b11 !
b10 !
0Z
1Y
1*
0R
1O
0S
1P
1Q
0'
1&
#8375
b11 !
1Z
0*
1R
1S
1'
#8500
b111 !
b101 !
b100 !
0Z
0Y
1X
1*
0R
0O
09
15
13
0S
0P
0K
0<
1C
16
0Q
0L
0>
1G
17
0'
0&
0%
1$
1(
#8625
b101 !
1Z
0*
1R
1=
1S
1'
#8750
b111 !
b110 !
0Z
1Y
1*
0R
0=
1O
1;
18
0S
1P
1=
1Q
0'
1&
#8875
b111 !
1Z
0*
1R
1S
1'
#9000
b1111 !
b1011 !
b1001 !
b1000 !
0Z
0Y
0X
1W
1*
0R
0O
0;
08
19
05
03
1:
06
0S
0P
1<
0=
1K
16
07
0Q
1>
1L
17
0'
0(
0&
1%
1(
#9125
b1001 !
1Z
0*
1R
1S
1'
#9250
b1011 !
b1010 !
0Z
1Y
1*
0R
1O
0S
1P
1Q
0'
1&
#9375
b1011 !
1Z
0*
1R
1S
1'
#9500
b1111 !
b1101 !
b1100 !
0Z
0Y
1X
1*
0R
0O
09
15
13
0S
0P
0K
0C
06
0Q
0L
0G
07
0'
0&
0%
0$
0(
#9625
b1101 !
1Z
0*
1R
1S
1'
#9750
b1111 !
b1110 !
0Z
1Y
1*
0R
1O
1;
18
0S
1P
1Q
0'
1&
#9875
b1111 !
1Z
0*
1R
1S
1'
#10000
b101 "
b111 !
b11 !
b1 !
b0 !
0Z
0Y
0X
0W
1^
1*
02
0O
0;
08
19
05
03
0:
16
1N
1H
1K
0P
06
17
0J
1L
0Q
07
1(
1%
0&
0(
#10125
b1 !
1Z
0*
0R
1P
12
0S
1Q
0'
1&
#10250
b11 !
b10 !
0Z
1Y
1*
1R
0P
1O
1S
0Q
1P
1Q
1'
0&
1&
#10375
b11 !
1Z
0*
0R
0P
14
0S
0Q
0K
15
0L
1C
16
0'
0&
1G
17
0%
1$
1(
#10500
b111 !
b101 !
b100 !
0Z
0Y
1X
1*
1R
1P
04
02
0O
09
13
1S
1Q
03
0P
0<
0Q
1'
1&
0&
#10625
b101 !
1Z
0*
0R
1P
0>
12
0S
1Q
13
0'
1&
#10750
b111 !
b110 !
0Z
1Y
1*
1R
0P
1>
1O
1;
18
1S
0Q
1P
0>
1=
1Q
1'
0&
1&
#10875
b111 !
1Z
0*
0R
0P
14
0S
0Q
1K
1L
0'
0&
1%
#11000
b1111 !
b1011 !
b1001 !
b1000 !
0Z
0Y
0X
1W
1*
1R
1P
04
02
0O
0;
08
19
03
1:
06
1S
1Q
05
0P
1<
1>
0=
0C
16
07
1C
0Q
0G
17
1'
1&
0(
1G
0&
0$
1(
1$
#11125
b1001 !
1Z
0*
0R
1P
12
0S
1Q
0'
1&
#11250
b1011 !
b1010 !
0Z
1Y
1*
1R
0P
1O
1S
0Q
1P
1Q
1'
0&
1&
#11375
b1011 !
1Z
0*
0R
0P
14
0S
0Q
0K
15
0L
0C
0'
0&
0G
0%
0$
#11500
b1111 !
b1101 !
b1100 !
0Z
0Y
1X
1*
1R
1P
04
02
0O
09
13
1S
1Q
03
0P
06
16
0Q
07
1'
1&
17
0&
0(
1(
#11625
b1101 !
1Z
0*
0R
1P
12
0S
1Q
13
06
0'
1&
07
0(
#11750
b1111 !
b1110 !
0Z
1Y
1*
1R
0P
1O
1;
18
1S
0Q
1P
1Q
1'
0&
1&
#11875
b1111 !
1Z
0*
0R
0P
14
0S
0Q
1K
1L
0'
0&
1%
#12000
b111 "
b110 "
b111 !
b11 !
b1 !
b0 !
0Z
0Y
0X
0W
0^
1]
1*
1P
04
02
0;
08
19
03
0:
16
1Q
05
1C
17
0C
06
1G
1&
1(
0G
07
1$
0$
0(
#12125
b1 !
1Z
0*
1R
1S
1'
#12250
b11 !
b10 !
0Z
1Y
1*
0R
14
12
0O
0S
0K
15
0P
0L
1C
16
0Q
0'
1G
17
0%
0&
1$
1(
#12375
b11 !
1Z
0*
1R
1S
1'
#12500
b111 !
b101 !
b100 !
0Z
0Y
1X
1*
0R
04
02
1O
09
13
0S
03
1P
1Q
0'
1&
#12625
b101 !
1Z
0*
1R
1S
1'
#12750
b111 !
b110 !
0Z
1Y
1*
0R
14
12
0O
1;
0S
1K
13
0P
0<
1L
0Q
0>
0'
1%
0&
#12875
b111 !
1Z
0*
1R
1=
1S
1'
#13000
b1111 !
b1011 !
b1001 !
b1000 !
0Z
0Y
0X
1W
1*
0R
0=
04
02
1O
0;
19
03
1:
06
0S
05
1P
1<
0C
16
07
1C
1Q
1>
0G
17
0'
0(
1G
1&
0$
1(
1$
#13125
b1001 !
1Z
0*
1R
1S
1'
#13250
b1011 !
b1010 !
0Z
1Y
1*
0R
14
12
0O
0S
0K
15
0P
0L
0C
0Q
0'
0G
0%
0&
0$
#13375
b1011 !
1Z
0*
1R
1S
1'
#13500
b1111 !
b1101 !
b1100 !
0Z
0Y
1X
1*
0R
04
02
1O
09
13
0S
03
1P
06
16
1Q
07
0'
17
1&
0(
1(
#13625
b1101 !
1Z
0*
1R
1S
1'
#13750
b1111 !
b1110 !
0Z
1Y
1*
0R
14
12
0O
1;
0S
1K
13
0P
1L
06
0Q
0'
07
1%
0&
0(
#13875
b1111 !
1Z
0*
1R
1S
1'
#14000
b111 "
b111 !
b11 !
b1 !
b0 !
0Z
0Y
0X
0W
1^
1*
04
02
1O
0;
19
03
0:
16
0N
05
1P
1C
17
0C
06
1Q
1G
1(
0G
07
1&
1$
0$
0(
#14125
b1 !
1Z
0*
0R
0P
14
0S
0Q
0K
15
0L
1C
16
0'
0&
1G
17
0%
1$
1(
#14250
b11 !
b10 !
0Z
1Y
1*
1R
1P
0O
1S
1Q
0P
0Q
1'
1&
0&
#14375
b11 !
1Z
0*
0R
1P
12
0S
1Q
0'
1&
#14500
b111 !
b101 !
b100 !
0Z
0Y
1X
1*
1R
0P
04
02
1O
09
13
1S
0Q
03
1P
1Q
1'
0&
1&
#14625
b101 !
1Z
0*
0R
0P
14
0S
0Q
1K
1L
0'
0&
1%
#14750
b111 !
b110 !
0Z
1Y
1*
1R
1P
0O
1;
1S
1Q
0P
0<
0Q
1'
1&
0&
#14875
b111 !
1Z
0*
0R
1P
0>
12
0S
1Q
13
0'
1&
#15000
b1111 !
b1011 !
b1001 !
b1000 !
0Z
0Y
0X
1W
1*
1R
0P
1>
04
02
1O
0;
19
03
1:
06
1S
0Q
05
1P
1<
0C
16
07
1C
1Q
0G
17
1'
0&
0(
1G
1&
0$
1(
1$
#15125
b1001 !
1Z
0*
0R
0P
14
0S
0Q
0K
15
0L
0C
0'
0&
0G
0%
0$
#15250
b1011 !
b1010 !
0Z
1Y
1*
1R
1P
0O
1S
1Q
0P
0Q
1'
1&
0&
#15375
b1011 !
1Z
0*
0R
1P
12
0S
1Q
0'
1&
#15500
b1111 !
b1101 !
b1100 !
0Z
0Y
1X
1*
1R
0P
04
02
1O
09
13
1S
0Q
03
1P
06
16
1Q
07
1'
0&
17
1&
0(
1(
#15625
b1101 !
1Z
0*
0R
0P
14
0S
0Q
1K
1L
0'
0&
1%
#15750
b1111 !
b1110 !
0Z
1Y
1*
1R
1P
0O
1;
1S
1Q
0P
0Q
1'
1&
0&
#15875
b1111 !
1Z
0*
0R
1P
12
0S
1Q
13
06
0'
1&
07
0(
#16000
b1111 "
b1011 "
b1001 "
b1000 "
b111 !
b11 !
b1 !
b0 !
0Z
0Y
0X
0W
0^
0]
0\
1[
1*
0P
04
0;
05
0A
16
0H
01
1J
0F
0Q
0K
1C
17
0J
1F
0L
1G
0&
1(
0%
1$
#16125
b1 !
1Z
0*
1R
1S
1'
#16250
b11 !
b10 !
0Z
1Y
1*
0R
1O
1;
18
0S
1P
1Q
0'
1&
#16375
b11 !
1Z
0*
1R
1S
1'
#16500
b111 !
b101 !
b100 !
0Z
0Y
1X
1*
0R
0O
19
0S
0P
1K
0Q
1L
0'
0&
1%
#16625
b101 !
1Z
0*
1R
1S
1'
#16750
b111 !
b110 !
0Z
1Y
1*
0R
1O
0S
1P
1Q
0'
1&
#16875
b111 !
1Z
0*
1R
1S
1'
#17000
b1111 !
b1011 !
b1001 !
b1000 !
0Z
0Y
0X
1W
1*
0R
0O
0;
08
09
1A
0:
0S
0P
0<
0K
0C
0Q
0>
0L
0G
0'
0&
0%
0$
#17125
b1001 !
1Z
0*
1R
1=
1S
1'
#17250
b1011 !
b1010 !
0Z
1Y
1*
0R
0=
1O
1;
18
0S
1P
1=
1Q
0'
1&
#17375
b1011 !
1Z
0*
1R
1S
1'
#17500
b1111 !
b1101 !
b1100 !
0Z
0Y
1X
1*
0R
0O
19
0S
0P
1K
0Q
1L
0'
0&
1%
#17625
b1101 !
1Z
0*
1R
1S
1'
#17750
b1111 !
b1110 !
0Z
1Y
1*
0R
1O
0S
1P
1Q
0'
1&
#17875
b1111 !
1Z
0*
1R
1S
1'
#18000
b1001 "
b111 !
b11 !
b1 !
b0 !
0Z
0Y
0X
0W
1^
1*
02
0O
0;
08
09
0A
1:
1N
1H
11
0K
03
0P
1<
1>
0=
1C
1J
0F
0L
06
0Q
1G
07
0%
0&
1$
0(
#18125
b1 !
1Z
0*
0R
1P
12
0S
1Q
13
16
0'
1&
17
1(
#18250
b11 !
b10 !
0Z
1Y
1*
1R
0P
1O
1;
18
1S
0Q
1P
1Q
1'
0&
1&
#18375
b11 !
1Z
0*
0R
0P
14
0S
0Q
1K
1L
0'
0&
1%
#18500
b111 !
b101 !
b100 !
0Z
0Y
1X
1*
1R
1P
04
02
0O
19
15
1S
1Q
05
0P
0C
1C
0Q
0G
1'
1&
1G
0&
0$
1$
#18625
b101 !
1Z
0*
0R
1P
12
0S
1Q
0'
1&
#18750
b111 !
b110 !
0Z
1Y
1*
1R
0P
1O
1S
0Q
1P
1Q
1'
0&
1&
#18875
b111 !
1Z
0*
0R
0P
14
0S
0Q
0K
15
0L
0C
0'
0&
0G
0%
0$
#19000
b1111 !
b1011 !
b1001 !
b1000 !
0Z
0Y
0X
1W
1*
1R
1P
04
02
0O
0;
08
09
05
1A
0:
06
1S
1Q
03
0P
0<
16
07
0Q
17
1'
1&
0(
0&
1(
#19125
b1001 !
1Z
0*
0R
1P
0>
12
0S
1Q
13
0'
1&
#19250
b1011 !
b1010 !
0Z
1Y
1*
1R
0P
1>
1O
1;
18
1S
0Q
1P
0>
1=
1Q
1'
0&
1&
#19375
b1011 !
1Z
0*
0R
0P
14
0S
0Q
1K
1L
0'
0&
1%
#19500
b1111 !
b1101 !
b1100 !
0Z
0Y
1X
1*
1R
1P
04
02
0O
19
15
1S
1Q
05
0P
1C
06
0C
16
0Q
1G
07
1'
1&
0G
17
0&
1$
0(
0$
1(
#19625
b1101 !
1Z
0*
0R
1P
12
0S
1Q
0'
1&
#19750
b1111 !
b1110 !
0Z
1Y
1*
1R
0P
1O
1S
0Q
1P
1Q
1'
0&
1&
#19875
b1111 !
1Z
0*
0R
0P
14
0S
0Q
0K
15
0L
1C
06
0'
0&
1G
07
0%
1$
0(
#20000
b1011 "
b1010 "
b111 !
b11 !
b1 !
b0 !
0Z
0Y
0X
0W
0^
1]
1*
1P
04
02
0;
08
09
05
0A
1:
16
1Q
03
1<
0=
17
06
1>
0B
1&
1(
07
1B
1)
0(
0)
#20125
b1 !
1Z
0*
1R
1S
1'
#20250
b11 !
b10 !
0Z
1Y
1*
0R
14
12
0O
1;
0S
1K
13
0P
1L
16
0Q
0'
17
1%
0&
1(
#20375
b11 !
1Z
0*
1R
1S
1'
#20500
b111 !
b101 !
b100 !
0Z
0Y
1X
1*
0R
04
02
1O
18
19
15
0S
05
1P
0C
1C
1Q
0G
0'
1G
1&
0$
1$
#20625
b101 !
1Z
0*
1R
1S
1'
#20750
b111 !
b110 !
0Z
1Y
1*
0R
14
12
0O
0S
0K
15
0P
0L
0C
0Q
0'
0G
0%
0&
0$
#20875
b111 !
1Z
0*
1R
1S
1'
#21000
b1111 !
b1011 !
b1001 !
b1000 !
0Z
0Y
0X
1W
1*
0R
04
02
1O
0;
08
09
05
1A
0:
06
0S
03
1P
16
07
1Q
17
0'
0(
1&
1(
#21125
b1001 !
1Z
0*
1R
1S
1'
#21250
b1011 !
b1010 !
0Z
1Y
1*
0R
14
12
0O
1;
0S
1K
13
0P
0<
1L
0Q
0>
0'
1%
0&
#21375
b1011 !
1Z
0*
1R
1=
1S
1'
#21500
b1111 !
b1101 !
b1100 !
0Z
0Y
1X
1*
0R
0=
04
02
1O
18
19
15
0S
05
1P
1=
1C
06
0C
16
1Q
1G
07
0'
0G
17
1&
1$
0(
0$
1(
#21625
b1101 !
1Z
0*
1R
1S
1'
#21750
b1111 !
b1110 !
0Z
1Y
1*
0R
14
12
0O
0S
0K
15
0P
0L
1C
06
0Q
0'
1G
07
0%
0&
1$
0(
#21875
b1111 !
1Z
0*
1R
1S
1'
#22000
b1011 "
b111 !
b11 !
b1 !
b0 !
0Z
0Y
0X
0W
1^
1*
04
02
1O
0;
08
09
05
0A
1:
16
0N
03
1P
1<
1>
0=
17
06
1Q
1(
07
1&
0(
#22125
b1 !
1Z
0*
0R
0P
14
0S
0Q
1K
1L
0'
0&
1%
#22250
b11 !
b10 !
0Z
1Y
1*
1R
1P
0O
1;
1S
1Q
0P
0Q
1'
1&
0&
#22375
b11 !
1Z
0*
0R
1P
12
0S
1Q
13
16
0'
1&
17
1(
#22500
b111 !
b101 !
b100 !
0Z
0Y
1X
1*
1R
0P
04
02
1O
18
19
15
1S
0Q
05
1P
0C
1C
1Q
0G
1'
0&
1G
1&
0$
1$
#22625
b101 !
1Z
0*
0R
0P
14
0S
0Q
0K
15
0L
0C
0'
0&
0G
0%
0$
#22750
b111 !
b110 !
0Z
1Y
1*
1R
1P
0O
1S
1Q
0P
0Q
1'
1&
0&
#22875
b111 !
1Z
0*
0R
1P
12
0S
1Q
0'
1&
#23000
b1111 !
b1011 !
b1001 !
b1000 !
0Z
0Y
0X
1W
1*
1R
0P
04
02
1O
0;
08
09
05
1A
0:
06
1S
0Q
03
1P
16
07
1Q
17
1'
0&
0(
1&
1(
#23125
b1001 !
1Z
0*
0R
0P
14
0S
0Q
1K
1L
0'
0&
1%
#23250
b1011 !
b1010 !
0Z
1Y
1*
1R
1P
0O
1;
1S
1Q
0P
0<
0Q
1'
1&
0&
#23375
b1011 !
1Z
0*
0R
1P
0>
12
0S
1Q
13
0'
1&
#23500
b1111 !
b1101 !
b1100 !
0Z
0Y
1X
1*
1R
0P
1>
04
02
1O
18
19
15
1S
0Q
05
1P
0>
1=
1C
06
0C
16
1Q
1G
07
1'
0&
0G
17
1&
1$
0(
0$
1(
#23625
b1101 !
1Z
0*
0R
0P
14
0S
0Q
0K
15
0L
1C
06
0'
0&
1G
07
0%
1$
0(
#23750
b1111 !
b1110 !
0Z
1Y
1*
1R
1P
0O
1S
1Q
0P
0Q
1'
1&
0&
#23875
b1111 !
1Z
0*
0R
1P
12
0S
1Q
0'
1&
#24000
b1111 "
b1101 "
b1100 "
b111 !
b11 !
b1 !
b0 !
0Z
0Y
0X
0W
0^
0]
1\
1*
0P
04
0;
08
03
0A
1:
16
0H
0J
0Q
1K
05
1<
0=
0C
06
17
1J
1L
1C
1>
0B
0G
07
0&
1(
1G
1B
1%
0$
0(
1)
1$
0)
#24125
b1 !
1Z
0*
1R
1S
1'
#24250
b11 !
b10 !
0Z
1Y
1*
0R
1O
0S
1P
1Q
0'
1&
#24375
b11 !
1Z
0*
1R
1S
1'
#24500
b111 !
b101 !
b100 !
0Z
0Y
1X
1*
0R
0O
09
15
13
0S
0P
0K
0C
16
0Q
0L
0G
17
0'
0&
0%
0$
1(
#24625
b101 !
1Z
0*
1R
1S
1'
#24750
b111 !
b110 !
0Z
1Y
1*
0R
1O
1;
18
0S
1P
1Q
0'
1&
#24875
b111 !
1Z
0*
1R
1S
1'
#25000
b1111 !
b1011 !
b1001 !
b1000 !
0Z
0Y
0X
1W
1*
0R
0O
0;
08
19
05
03
1A
0:
06
0S
0P
1K
16
07
0Q
1L
17
0'
0(
0&
1%
1(
#25125
b1001 !
1Z
0*
1R
1S
1'
#25250
b1011 !
b1010 !
0Z
1Y
1*
0R
1O
0S
1P
1Q
0'
1&
#25375
b1011 !
1Z
0*
1R
1S
1'
#25500
b1111 !
b1101 !
b1100 !
0Z
0Y
1X
1*
0R
0O
09
15
13
0S
0P
0K
0<
1C
06
0Q
0L
0>
1G
07
0'
0&
0%
1$
0(
#25625
b1101 !
1Z
0*
1R
1=
1S
1'
#25750
b1111 !
b1110 !
0Z
1Y
1*
0R
0=
1O
1;
18
0S
1P
1=
1Q
0'
1&
#25875
b1111 !
1Z
0*
1R
1S
1'
#26000
b1101 "
b111 !
b11 !
b1 !
b0 !
0Z
0Y
0X
0W
1^
1*
02
0O
0;
08
19
05
03
0A
1:
16
1N
1H
1K
0P
1<
1>
0=
06
17
0J
1L
0Q
07
1(
1%
0&
0(
#26125
b1 !
1Z
0*
0R
1P
12
0S
1Q
0'
1&
#26250
b11 !
b10 !
0Z
1Y
1*
1R
0P
1O
1S
0Q
1P
1Q
1'
0&
1&
#26375
b11 !
1Z
0*
0R
0P
14
0S
0Q
0K
15
0L
0C
0'
0&
0G
0%
0$
#26500
b111 !
b101 !
b100 !
0Z
0Y
1X
1*
1R
1P
04
02
0O
09
13
1S
1Q
03
0P
16
06
0Q
17
1'
1&
07
0&
1(
0(
#26625
b101 !
1Z
0*
0R
1P
12
0S
1Q
13
16
0'
1&
17
1(
#26750
b111 !
b110 !
0Z
1Y
1*
1R
0P
1O
1;
18
1S
0Q
1P
1Q
1'
0&
1&
#26875
b111 !
1Z
0*
0R
0P
14
0S
0Q
1K
1L
0'
0&
1%
#27000
b1111 !
b1011 !
b1001 !
b1000 !
0Z
0Y
0X
1W
1*
1R
1P
04
02
0O
0;
08
19
03
1A
0:
06
1S
1Q
05
0P
1C
07
0C
16
0Q
1G
1'
1&
0(
0G
17
0&
1$
0$
1(
#27125
b1001 !
1Z
0*
0R
1P
12
0S
1Q
0'
1&
#27250
b1011 !
b1010 !
0Z
1Y
1*
1R
0P
1O
1S
0Q
1P
1Q
1'
0&
1&
#27375
b1011 !
1Z
0*
0R
0P
14
0S
0Q
0K
15
0L
1C
06
0'
0&
1G
07
0%
1$
0(
#27500
b1111 !
b1101 !
b1100 !
0Z
0Y
1X
1*
1R
1P
04
02
0O
09
13
1S
1Q
03
0P
0<
0Q
1'
1&
0&
#27625
b1101 !
1Z
0*
0R
1P
0>
12
0S
1Q
13
0'
1&
#27750
b1111 !
b1110 !
0Z
1Y
1*
1R
0P
1>
1O
1;
18
1S
0Q
1P
0>
1=
1Q
1'
0&
1&
#27875
b1111 !
1Z
0*
0R
0P
14
0S
0Q
1K
1L
0'
0&
1%
