simulation/qsim/ULA.msim.vcd
$comment
	File created using the following command:
		vcd file ULA.msim.vcd -direction
$end
$date
	Thu Oct 27 23:08:42 2016
$end
$version
	ModelSim Version 10.1d
$end
$timescale
	1ps
$end
$scope module placa_BCD_vlg_vec_tst $end
$var reg 4 ! A [3:0] $end
$var reg 4 " B [3:0] $end
$var wire 1 # display_a $end
$var wire 1 $ display_b $end
$var wire 1 % display_c $end
$var wire 1 & display_d $end
$var wire 1 ' display_dp $end
$var wire 1 ( display_e $end
$var wire 1 ) display_f $end
$var wire 1 * display_g $end
$var wire 1 + overflow $end
$var wire 1 , sampler $end
$scope module i1 $end
$var wire 1 - gnd $end
$var wire 1 . vcc $end
$var wire 1 / unknown $end
$var tri1 1 0 devclrn $end
$var tri1 1 1 devpor $end
$var tri1 1 2 devoe $end
$var wire 1 3 inst|inst9|inst1~0_combout $end
$var wire 1 4 inst|inst10|inst5~0_combout $end
$var wire 1 5 inst|inst10|inst1~0_combout $end
$var wire 1 6 inst|inst10|inst1~1_combout $end
$var wire 1 7 inst|inst11|inst5~combout $end
$var wire 1 8 inst|inst11|inst1~0_combout $end
$var wire 1 9 inst|inst9|inst5~0_combout $end
$var wire 1 : inst|inst5~0_combout $end
$var wire 1 ; inst3|inst4~1_combout $end
$var wire 1 < inst3|inst4~0_combout $end
$var wire 1 = inst3|inst4~2_combout $end
$var wire 1 > A~combout [3] $end
$var wire 1 ? A~combout [2] $end
$var wire 1 @ A~combout [1] $end
$var wire 1 A A~combout [0] $end
$var wire 1 B B~combout [3] $end
$var wire 1 C B~combout [2] $end
$var wire 1 D B~combout [1] $end
$var wire 1 E B~combout [0] $end
$upscope $end
$upscope $end
$enddefinitions $end
#0
$dumpvars
b0 !
b0 "
1#
1$
1%
1&
1'
0(
1)
1*
0+
x,
0-
1.
x/
10
11
12
03
04
05
06
07
08
09
0:
0;
0<
0=
0A
0@
0?
0>
0E
0D
0C
0B
$end
#1000
b1 !
1A
0,
1=
1(
#2000
b11 !
b10 !
0A
1@
1,
0=
19
0(
#3000
b11 !
1A
0,
1=
1(
#4000
b111 !
b101 !
b100 !
0A
0@
1?
1,
0=
09
14
1<
0(
1=
1(
#5000
b101 !
1A
0,
#6000
b111 !
b110 !
0A
1@
1,
19
0<
0=
0(
#7000
b111 !
1A
0,
1=
1(
#8000
b1111 !
b1011 !
b1001 !
b1000 !
0A
0@
0?
1>
1,
0=
09
04
17
0(
#9000
b1001 !
1A
0,
1=
1(
#10000
b1011 !
b1010 !
0A
1@
1,
0=
19
1:
0(
1+
#11000
b1011 !
1A
0,
1=
1(
#12000
b1111 !
b1101 !
b1100 !
0A
0@
1?
1,
0=
09
14
0(
#13000
b1101 !
1A
0,
1=
1(
#14000
b1111 !
b1110 !
0A
1@
1,
0=
19
1<
0(
1=
1(
#15000
b1111 !
1A
0,
#16000
b1 "
b111 !
b11 !
b1 !
b0 !
0A
0@
0?
0>
1E
1,
09
04
07
0<
0:
0+
#17000
b1 !
1A
0,
0=
19
0(
#18000
b11 !
b10 !
0A
1@
1,
1=
1(
#19000
b11 !
1A
0,
0=
09
13
14
0(
1<
1=
1(
#20000
b111 !
b101 !
b100 !
0A
0@
1?
1,
03
16
04
06
14
17
0<
07
1:
1<
0:
1+
0+
#21000
b101 !
1A
0,
19
0<
0=
0(
#22000
b111 !
b110 !
0A
1@
1,
1=
1(
#23000
b111 !
1A
0,
0=
09
13
1<
16
04
0(
1=
17
0<
0=
1(
0(
#24000
b1111 !
b1011 !
b1001 !
b1000 !
0A
0@
0?
1>
1,
1=
03
06
14
18
07
04
08
17
1;
1:
1(
0;
0:
0=
1+
1=
0+
0(
1(
#25000
b1001 !
1A
0,
0=
19
1:
0(
1+
#26000
b1011 !
b1010 !
0A
1@
1,
1=
1(
#27000
b1011 !
1A
0,
0=
09
13
0:
14
0(
1:
0+
1+
#28000
b1111 !
b1101 !
b1100 !
0A
0@
1?
1,
1=
03
16
04
06
14
18
07
0:
1(
08
17
1;
1:
0+
0;
0=
1+
1=
0(
1(
#29000
b1101 !
1A
0,
0=
19
1<
0(
1=
1(
#30000
b1111 !
b1110 !
0A
1@
1,
#31000
b1111 !
1A
0,
09
13
0<
16
04
0=
18
07
0:
1:
0(
0+
1+
#32000
b11 "
b10 "
b111 !
b11 !
b1 !
b0 !
0A
0@
0?
0>
0E
1D
1,
19
03
06
14
08
17
1<
04
07
1=
0<
0:
0=
1(
0+
0(
#33000
b1 !
1A
0,
1=
1(
#34000
b11 !
b10 !
0A
1@
1,
0=
09
13
14
0(
1<
1=
1(
#35000
b11 !
1A
0,
#36000
b111 !
b101 !
b100 !
0A
0@
1?
1,
19
03
16
04
0<
06
14
17
0=
07
1<
1:
0<
0:
1=
0(
1+
0=
0+
1(
0(
#37000
b101 !
1A
0,
1=
1(
#38000
b111 !
b110 !
0A
1@
1,
0=
09
13
1<
16
04
0(
1=
17
0<
0=
1(
0(
#39000
b111 !
1A
0,
1=
1(
#40000
b1111 !
b1011 !
b1001 !
b1000 !
0A
0@
0?
1>
1,
0=
19
03
06
14
18
07
1;
1:
04
08
17
0(
0;
1+
#41000
b1001 !
1A
0,
1=
1(
#42000
b1011 !
b1010 !
0A
1@
1,
0=
09
13
0:
14
0(
1:
0+
1+
#43000
b1011 !
1A
0,
1=
1(
#44000
b1111 !
b1101 !
b1100 !
0A
0@
1?
1,
0=
19
03
16
04
06
14
18
07
0(
08
17
1;
1<
0;
1=
1(
#45000
b1101 !
1A
0,
#46000
b1111 !
b1110 !
0A
1@
1,
09
13
0<
16
04
0=
18
07
0:
1:
0(
0+
1+
#47000
b1111 !
1A
0,
1=
1(
#48000
b11 "
b111 !
b11 !
b1 !
b0 !
0A
0@
0?
0>
1E
1,
19
03
06
14
08
17
1<
04
07
0<
0:
0+
#49000
b1 !
1A
0,
0=
09
13
14
0(
1<
1=
1(
#50000
b11 !
b10 !
0A
1@
1,
#51000
b11 !
1A
0,
19
0<
0=
0(
#52000
b111 !
b101 !
b100 !
0A
0@
1?
1,
1=
03
16
04
06
14
17
1(
07
1<
1:
0<
0:
1+
0+
#53000
b101 !
1A
0,
0=
09
13
1<
16
04
0(
1=
17
0<
0=
1(
0(
#54000
b111 !
b110 !
0A
1@
1,
1=
1(
#55000
b111 !
1A
0,
0=
19
1:
0(
1+
#56000
b1111 !
b1011 !
b1001 !
b1000 !
0A
0@
0?
1>
1,
1=
03
06
14
18
07
04
08
17
1;
1(
0;
0=
1=
0(
1(
#57000
b1001 !
1A
0,
0=
09
13
0:
14
0(
1:
0+
1+
#58000
b1011 !
b1010 !
0A
1@
1,
1=
1(
#59000
b1011 !
1A
0,
0=
19
1<
0(
1=
1(
#60000
b1111 !
b1101 !
b1100 !
0A
0@
1?
1,
03
16
04
06
14
18
07
0<
08
17
1;
1<
0;
0=
1=
0(
1(
#61000
b1101 !
1A
0,
09
13
0<
16
04
0=
18
07
0:
1:
0(
0+
1+
#62000
b1111 !
b1110 !
0A
1@
1,
1=
1(
#63000
b1111 !
1A
0,
0=
19
0(
#64000
b111 "
b101 "
b100 "
b111 !
b11 !
b1 !
b0 !
0A
0@
0?
0>
0E
0D
1C
1,
09
03
06
08
17
15
0:
05
14
07
1:
0+
1<
0:
1+
1=
0+
1(
#65000
b1 !
1A
0,
#66000
b11 !
b10 !
0A
1@
1,
19
0<
0=
0(
#67000
b11 !
1A
0,
1=
1(
#68000
b111 !
b101 !
b100 !
0A
0@
1?
1,
0=
09
16
04
17
0(
#69000
b101 !
1A
0,
1=
1(
#70000
b111 !
b110 !
0A
1@
1,
0=
19
1:
0(
1+
#71000
b111 !
1A
0,
1=
1(
#72000
b1111 !
b1011 !
b1001 !
b1000 !
0A
0@
0?
1>
1,
0=
09
06
14
18
07
1;
08
17
0(
0;
#73000
b1001 !
1A
0,
1=
1(
#74000
b1011 !
b1010 !
0A
1@
1,
0=
19
1<
0(
1=
1(
#75000
b1011 !
1A
0,
#76000
b1111 !
b1101 !
b1100 !
0A
0@
1?
1,
09
16
04
0<
0:
18
07
0=
1:
0+
0(
1+
#77000
b1101 !
1A
0,
1=
1(
#78000
b1111 !
b1110 !
0A
1@
1,
0=
19
0(
#79000
b1111 !
1A
0,
1=
1(
#80000
b101 "
b111 !
b11 !
b1 !
b0 !
0A
0@
0?
0>
1E
1,
09
06
14
08
17
07
1<
0:
0+
#81000
b1 !
1A
0,
19
0<
0=
0(
#82000
b11 !
b10 !
0A
1@
1,
1=
1(
#83000
b11 !
1A
0,
0=
09
13
1<
15
04
0(
1=
17
0<
0=
1(
0(
#84000
b111 !
b101 !
b100 !
0A
0@
1?
1,
1=
03
16
14
05
04
1:
1(
0:
1+
0+
#85000
b101 !
1A
0,
0=
19
1:
0(
1+
#86000
b111 !
b110 !
0A
1@
1,
1=
1(
#87000
b111 !
1A
0,
0=
09
13
0:
15
14
0(
1:
0+
1+
#88000
b1111 !
b1011 !
b1001 !
b1000 !
0A
0@
0?
1>
1,
1=
03
06
04
18
07
05
14
1(
08
17
1;
0;
0=
1=
0(
1(
#89000
b1001 !
1A
0,
0=
19
1<
0(
1=
1(
#90000
b1011 !
b1010 !
0A
1@
1,
#91000
b1011 !
1A
0,
09
13
0<
15
04
0=
18
07
0:
1:
0(
0+
1+
#92000
b1111 !
b1101 !
b1100 !
0A
0@
1?
1,
1=
03
16
14
05
04
1;
1(
0;
0=
1=
0(
1(
#93000
b1101 !
1A
0,
0=
19
0(
#94000
b1111 !
b1110 !
0A
1@
1,
1=
1(
#95000
b1111 !
1A
0,
0=
09
13
15
14
0(
1;
#96000
b111 "
b110 "
b111 !
b11 !
b1 !
b0 !
0A
0@
0?
0>
0E
1D
1,
19
03
06
04
08
17
0;
05
14
07
1<
0<
0:
1=
0=
0+
1(
0(
#97000
b1 !
1A
0,
1=
1(
#98000
b11 !
b10 !
0A
1@
1,
0=
09
13
1<
15
04
0(
1=
17
0<
0=
1(
0(
#99000
b11 !
1A
0,
1=
1(
#100000
b111 !
b101 !
b100 !
0A
0@
1?
1,
0=
19
03
16
14
1<
1:
05
04
0(
1=
0<
1+
0=
1(
0(
#101000
b101 !
1A
0,
1=
1(
#102000
b111 !
b110 !
0A
1@
1,
0=
09
13
0:
15
14
0(
1:
0+
1+
#103000
b111 !
1A
0,
1=
1(
#104000
b1111 !
b1011 !
b1001 !
b1000 !
0A
0@
0?
1>
1,
0=
19
03
06
04
18
07
05
14
0(
08
17
1;
1<
0;
1=
1(
#105000
b1001 !
1A
0,
#106000
b1011 !
b1010 !
0A
1@
1,
09
13
0<
15
04
0=
18
07
0:
1:
0(
0+
1+
#107000
b1011 !
1A
0,
1=
1(
#108000
b1111 !
b1101 !
b1100 !
0A
0@
1?
1,
0=
19
03
16
14
1;
05
04
0(
0;
#109000
b1101 !
1A
0,
1=
1(
#110000
b1111 !
b1110 !
0A
1@
1,
0=
09
13
15
14
0(
1;
#111000
b1111 !
1A
0,
#112000
b111 "
b111 !
b11 !
b1 !
b0 !
0A
0@
0?
0>
1E
1,
19
03
06
04
08
17
0;
05
14
1=
07
1<
0<
0:
1(
0+
#113000
b1 !
1A
0,
0=
09
13
1<
15
04
0(
1=
17
0<
0=
1(
0(
#114000
b11 !
b10 !
0A
1@
1,
1=
1(
#115000
b11 !
1A
0,
0=
19
1:
0(
1+
#116000
b111 !
b101 !
b100 !
0A
0@
1?
1,
1=
03
16
14
05
04
1<
1(
0<
#117000
b101 !
1A
0,
0=
09
13
0:
15
14
0(
1:
0+
1+
#118000
b111 !
b110 !
0A
1@
1,
1=
1(
#119000
b111 !
1A
0,
0=
19
1<
0(
1=
1(
#120000
b1111 !
b1011 !
b1001 !
b1000 !
0A
0@
0?
1>
1,
03
06
04
18
07
05
14
0<
08
17
1;
1<
0;
0=
1=
0(
1(
#121000
b1001 !
1A
0,
09
13
0<
15
04
0=
18
07
0:
1:
0(
0+
1+
#122000
b1011 !
b1010 !
0A
1@
1,
1=
1(
#123000
b1011 !
1A
0,
0=
19
0(
#124000
b1111 !
b1101 !
b1100 !
0A
0@
1?
1,
1=
03
16
14
05
04
1;
1(
0;
0=
1=
0(
1(
#125000
b1101 !
1A
0,
0=
09
13
15
14
0(
1;
#126000
b1111 !
b1110 !
0A
1@
1,
#127000
b1111 !
1A
0,
19
#128000
b1111 "
b1011 "
b1001 "
b1000 "
b111 !
b11 !
b1 !
b0 !
0A
0@
0?
0>
0E
0D
0C
1B
1,
09
03
06
05
04
08
17
0;
0:
0+
#129000
b1 !
1A
0,
1=
1(
#130000
b11 !
b10 !
0A
1@
1,
0=
19
1:
0(
1+
#131000
b11 !
1A
0,
1=
1(
#132000
b111 !
b101 !
b100 !
0A
0@
1?
1,
0=
09
14
0(
#133000
b101 !
1A
0,
1=
1(
#134000
b111 !
b110 !
0A
1@
1,
0=
19
1<
0(
1=
1(
#135000
b111 !
1A
0,
#136000
b1111 !
b1011 !
b1001 !
b1000 !
0A
0@
0?
1>
1,
09
04
18
07
0<
0=
0(
#137000
b1001 !
1A
0,
1=
1(
#138000
b1011 !
b1010 !
0A
1@
1,
0=
19
0(
#139000
b1011 !
1A
0,
1=
1(
#140000
b1111 !
b1101 !
b1100 !
0A
0@
1?
1,
0=
09
14
1;
0(
#141000
b1101 !
1A
0,
#142000
b1111 !
b1110 !
0A
1@
1,
19
#143000
b1111 !
1A
0,
#144000
b1001 "
b111 !
b11 !
b1 !
b0 !
0A
0@
0?
0>
1E
1,
09
04
08
17
0;
0:
1=
0+
1(
#145000
b1 !
1A
0,
0=
19
1:
0(
1+
#146000
b11 !
b10 !
0A
1@
1,
1=
1(
#147000
b11 !
1A
0,
0=
09
13
0:
14
0(
1:
0+
1+
#148000
b111 !
b101 !
b100 !
0A
0@
1?
1,
1=
03
16
04
06
14
18
07
0:
1(
08
17
1;
1:
0+
0;
0=
1+
1=
0(
1(
#149000
b101 !
1A
0,
0=
19
1<
0(
1=
1(
#150000
b111 !
b110 !
0A
1@
1,
#151000
b111 !
1A
0,
09
13
0<
16
04
0=
18
07
0:
1:
0(
0+
1+
#152000
b1111 !
b1011 !
b1001 !
b1000 !
0A
0@
0?
1>
1,
1=
03
06
14
17
04
07
1(
#153000
b1001 !
1A
0,
0=
19
0(
#154000
b1011 !
b1010 !
0A
1@
1,
1=
1(
#155000
b1011 !
1A
0,
0=
09
13
14
0(
1;
#156000
b1111 !
b1101 !
b1100 !
0A
0@
1?
1,
03
16
04
06
14
17
0;
07
1=
1;
1(
0=
0(
#157000
b1101 !
1A
0,
19
#158000
b1111 !
b1110 !
0A
1@
1,
#159000
b1111 !
1A
0,
09
13
16
04
17
0;
1;
#160000
b1011 "
b1010 "
b111 !
b11 !
b1 !
b0 !
0A
0@
0?
0>
0E
1D
1,
19
03
06
14
07
04
08
17
0;
#161000
b1 !
1A
0,
1=
1(
#162000
b11 !
b10 !
0A
1@
1,
0=
09
13
0:
14
0(
1:
0+
1+
#163000
b11 !
1A
0,
1=
1(
#164000
b111 !
b101 !
b100 !
0A
0@
1?
1,
0=
19
03
16
04
06
14
18
07
0(
08
17
1;
1<
0;
1=
1(
#165000
b101 !
1A
0,
#166000
b111 !
b110 !
0A
1@
1,
09
13
0<
16
04
0=
18
07
0:
1:
0(
0+
1+
#167000
b111 !
1A
0,
1=
1(
#168000
b1111 !
b1011 !
b1001 !
b1000 !
0A
0@
0?
1>
1,
0=
19
03
06
14
17
1<
04
07
0(
1=
0<
0=
1(
0(
#169000
b1001 !
1A
0,
1=
1(
#170000
b1011 !
b1010 !
0A
1@
1,
0=
09
13
14
0(
1;
#171000
b1011 !
1A
0,
#172000
b1111 !
b1101 !
b1100 !
0A
0@
1?
1,
19
03
16
04
0;
06
14
17
07
1<
0<
1;
1=
0=
1(
0(
#173000
b1101 !
1A
0,
#174000
b1111 !
b1110 !
0A
1@
1,
09
13
16
04
17
0;
1;
#175000
b1111 !
1A
0,
#176000
b1011 "
b111 !
b11 !
b1 !
b0 !
0A
0@
0?
0>
1E
1,
19
03
06
14
07
04
08
17
0;
1=
1(
#177000
b1 !
1A
0,
0=
09
13
0:
14
0(
1:
0+
1+
#178000
b11 !
b10 !
0A
1@
1,
1=
1(
#179000
b11 !
1A
0,
0=
19
1<
0(
1=
1(
#180000
b111 !
b101 !
b100 !
0A
0@
1?
1,
03
16
04
06
14
18
07
0<
08
17
1;
1<
0;
0=
1=
0(
1(
#181000
b101 !
1A
0,
09
13
0<
16
04
0=
18
07
0:
1:
0(
0+
1+
#182000
b111 !
b110 !
0A
1@
1,
1=
1(
#183000
b111 !
1A
0,
0=
19
0(
#184000
b1111 !
b1011 !
b1001 !
b1000 !
0A
0@
0?
1>
1,
1=
03
06
14
17
04
07
1<
1(
0<
#185000
b1001 !
1A
0,
0=
09
13
14
0(
1;
#186000
b1011 !
b1010 !
0A
1@
1,
#187000
b1011 !
1A
0,
19
#188000
b1111 !
b1101 !
b1100 !
0A
0@
1?
1,
03
16
04
06
14
17
0;
07
1<
1=
0<
1;
1(
0=
0(
#189000
b1101 !
1A
0,
09
13
16
04
17
0;
1;
#190000
b1111 !
b1110 !
0A
1@
1,
#191000
b1111 !
1A
0,
19
0;
#192000
b1111 "
b1101 "
b1100 "
b111 !
b11 !
b1 !
b0 !
0A
0@
0?
0>
0E
0D
1C
1,
09
03
06
07
15
05
14
08
17
1;
0;
#193000
b1 !
1A
0,
1=
1(
#194000
b11 !
b10 !
0A
1@
1,
0=
19
1<
0(
1=
1(
#195000
b11 !
1A
0,
#196000
b111 !
b101 !
b100 !
0A
0@
1?
1,
09
16
04
0<
0:
18
07
0=
1:
0+
0(
1+
#197000
b101 !
1A
0,
1=
1(
#198000
b111 !
b110 !
0A
1@
1,
0=
19
0(
#199000
b111 !
1A
0,
1=
1(
#200000
b1111 !
b1011 !
b1001 !
b1000 !
0A
0@
0?
1>
1,
0=
09
06
14
17
07
0(
1;
#201000
b1001 !
1A
0,
#202000
b1011 !
b1010 !
0A
1@
1,
19
#203000
b1011 !
1A
0,
#204000
b1111 !
b1101 !
b1100 !
0A
0@
1?
1,
09
16
04
0;
17
1;
#205000
b1101 !
1A
0,
#206000
b1111 !
b1110 !
0A
1@
1,
19
0;
#207000
b1111 !
1A
0,
1=
1(
#208000
b1101 "
b111 !
b11 !
b1 !
b0 !
0A
0@
0?
0>
1E
1,
09
06
14
07
1;
08
17
0=
0;
1=
0(
1(
#209000
b1 !
1A
0,
0=
19
1<
0(
1=
1(
#210000
b11 !
b10 !
0A
1@
1,
#211000
b11 !
1A
0,
09
13
0<
15
04
0=
18
07
0:
1:
0(
0+
1+
#212000
b111 !
b101 !
b100 !
0A
0@
1?
1,
1=
03
16
14
05
04
1;
1(
0;
0=
1=
0(
1(
#213000
b101 !
1A
0,
0=
19
0(
#214000
b111 !
b110 !
0A
1@
1,
1=
1(
#215000
b111 !
1A
0,
0=
09
13
15
14
0(
1;
#216000
b1111 !
b1011 !
b1001 !
b1000 !
0A
0@
0?
1>
1,
03
06
04
17
05
14
07
0;
1;
1=
0=
1(
0(
#217000
b1001 !
1A
0,
19
#218000
b1011 !
b1010 !
0A
1@
1,
#219000
b1011 !
1A
0,
09
13
15
04
17
0;
1;
#220000
b1111 !
b1101 !
b1100 !
0A
0@
1?
1,
03
16
14
05
04
0;
1;
1=
0=
1(
0(
#221000
b1101 !
1A
0,
19
0;
#222000
b1111 !
b1110 !
0A
1@
1,
1=
1(
#223000
b1111 !
1A
0,
0=
09
13
1;
15
14
0(
0;
#224000
b1111 "
b1110 "
b111 !
b11 !
b1 !
b0 !
0A
0@
0?
0>
0E
1D
1,
19
03
06
04
07
05
14
08
17
1;
1<
0;
1=
1(
#225000
b1 !
1A
0,
#226000
b11 !
b10 !
0A
1@
1,
09
13
0<
15
04
0=
18
07
0:
1:
0(
0+
1+
#227000
b11 !
1A
0,
1=
1(
#228000
b111 !
b101 !
b100 !
0A
0@
1?
1,
0=
19
03
16
14
1;
05
04
0(
0;
#229000
b101 !
1A
0,
1=
1(
#230000
b111 !
b110 !
0A
1@
1,
0=
09
13
15
14
0(
1;
#231000
b111 !
1A
0,
#232000
b1111 !
b1011 !
b1001 !
b1000 !
0A
0@
0?
1>
1,
19
03
06
04
17
0;
05
14
07
1<
0<
1;
1=
0=
1(
0(
#233000
b1001 !
1A
0,
#234000
b1011 !
b1010 !
0A
1@
1,
09
13
15
04
17
0;
1;
#235000
b1011 !
1A
0,
#236000
b1111 !
b1101 !
b1100 !
0A
0@
1?
1,
19
03
16
14
1<
0;
05
04
1=
0<
0=
1(
0(
#237000
b1101 !
1A
0,
1=
1(
#238000
b1111 !
b1110 !
0A
1@
1,
0=
09
13
1;
15
14
0(
0;
#239000
b1111 !
1A
0,
1=
1(
#240000
b1111 "
b111 !
b11 !
b1 !
b0 !
0A
0@
0?
0>
1E
1,
19
03
06
04
07
05
14
08
17
1;
1<
0;
0=
1=
0(
1(
#241000
b1 !
1A
0,
09
13
0<
15
04
0=
18
07
0:
1:
0(
0+
1+
#242000
b11 !
b10 !
0A
1@
1,
1=
1(
#243000
b11 !
1A
0,
0=
19
0(
#244000
b111 !
b101 !
b100 !
0A
0@
1?
1,
1=
03
16
14
05
04
1;
1(
0;
0=
1=
0(
1(
#245000
b101 !
1A
0,
0=
09
13
15
14
0(
1;
#246000
b111 !
b110 !
0A
1@
1,
#247000
b111 !
1A
0,
19
#248000
b1111 !
b1011 !
b1001 !
b1000 !
0A
0@
0?
1>
1,
03
06
04
17
05
14
0;
07
1<
1=
0<
1;
1(
0=
0(
#249000
b1001 !
1A
0,
09
13
15
04
17
0;
1;
#250000
b1011 !
b1010 !
0A
1@
1,
#251000
b1011 !
1A
0,
19
0;
#252000
b1111 !
b1101 !
b1100 !
0A
0@
1?
1,
1=
03
16
14
05
04
1<
1(
0<
#253000
b1101 !
1A
0,
0=
09
13
1;
15
14
0(
0;
#254000
b1111 !
b1110 !
0A
1@
1,
1=
1(
#255000
b1111 !
1A
0,
0=
19
1<
0(
1=
1(
#256000
b111 "
b11 "
b1 "
b0 "
b111 !
b11 !
b1 !
b0 !
0A
0@
0?
0>
0E
0D
0C
0B
1,
09
03
06
08
05
0<
04
07
0=
0:
0(
0+
#257000
b1 !
1A
0,
1=
1(
#258000
b11 !
b10 !
0A
1@
1,
0=
19
0(
#259000
b11 !
1A
0,
1=
1(
#260000
b111 !
b101 !
b100 !
0A
0@
1?
1,
0=
09
14
1<
0(
1=
1(
#261000
b101 !
1A
0,
#262000
b111 !
b110 !
0A
1@
1,
19
0<
0=
0(
#263000
b111 !
1A
0,
1=
1(
#264000
b1111 !
b1011 !
b1001 !
b1000 !
0A
0@
0?
1>
1,
0=
09
04
17
0(
#265000
b1001 !
1A
0,
1=
1(
#266000
b1011 !
b1010 !
0A
1@
1,
0=
19
1:
0(
1+
#267000
b1011 !
1A
0,
1=
1(
#268000
b1111 !
b1101 !
b1100 !
0A
0@
1?
1,
0=
09
14
0(
#269000
b1101 !
1A
0,
1=
1(
#270000
b1111 !
b1110 !
0A
1@
1,
0=
19
1<
0(
1=
1(
#271000
b1111 !
1A
0,
#272000
b1 "
b111 !
b11 !
b1 !
b0 !
0A
0@
0?
0>
1E
1,
09
04
07
0<
0:
0+
#273000
b1 !
1A
0,
0=
19
0(
#274000
b11 !
b10 !
0A
1@
1,
1=
1(
#275000
b11 !
1A
0,
0=
09
13
14
0(
1<
1=
1(
#276000
b111 !
b101 !
b100 !
0A
0@
1?
1,
03
16
04
06
14
17
0<
07
1:
1<
0:
1+
0+
#277000
b101 !
1A
0,
19
0<
0=
0(
#278000
b111 !
b110 !
0A
1@
1,
1=
1(
#279000
b111 !
1A
0,
0=
09
13
1<
16
04
0(
1=
17
0<
0=
1(
0(
#280000
b1111 !
b1011 !
b1001 !
b1000 !
0A
0@
0?
1>
1,
1=
03
06
14
18
07
04
08
17
1;
1:
1(
0;
0:
0=
1+
1=
0+
0(
1(
#281000
b1001 !
1A
0,
0=
19
1:
0(
1+
#282000
b1011 !
b1010 !
0A
1@
1,
1=
1(
#283000
b1011 !
1A
0,
0=
09
13
0:
14
0(
1:
0+
1+
#284000
b1111 !
b1101 !
b1100 !
0A
0@
1?
1,
1=
03
16
04
06
14
18
07
0:
1(
08
17
1;
1:
0+
0;
0=
1+
1=
0(
1(
#285000
b1101 !
1A
0,
0=
19
1<
0(
1=
1(
#286000
b1111 !
b1110 !
0A
1@
1,
#287000
b1111 !
1A
0,
09
13
0<
16
04
0=
18
07
0:
1:
0(
0+
1+
#288000
b11 "
b10 "
b111 !
b11 !
b1 !
b0 !
0A
0@
0?
0>
0E
1D
1,
19
03
06
14
08
17
1<
04
07
1=
0<
0:
0=
1(
0+
0(
#289000
b1 !
1A
0,
1=
1(
#290000
b11 !
b10 !
0A
1@
1,
0=
09
13
14
0(
1<
1=
1(
#291000
b11 !
1A
0,
#292000
b111 !
b101 !
b100 !
0A
0@
1?
1,
19
03
16
04
0<
06
14
17
0=
07
1<
1:
0<
0:
1=
0(
1+
0=
0+
1(
0(
#293000
b101 !
1A
0,
1=
1(
#294000
b111 !
b110 !
0A
1@
1,
0=
09
13
1<
16
04
0(
1=
17
0<
0=
1(
0(
#295000
b111 !
1A
0,
1=
1(
#296000
b1111 !
b1011 !
b1001 !
b1000 !
0A
0@
0?
1>
1,
0=
19
03
06
14
18
07
1;
1:
04
08
17
0(
0;
1+
#297000
b1001 !
1A
0,
1=
1(
#298000
b1011 !
b1010 !
0A
1@
1,
0=
09
13
0:
14
0(
1:
0+
1+
#299000
b1011 !
1A
0,
1=
1(
#300000
b1111 !
b1101 !
b1100 !
0A
0@
1?
1,
0=
19
03
16
04
06
14
18
07
0(
08
17
1;
1<
0;
1=
1(
#301000
b1101 !
1A
0,
#302000
b1111 !
b1110 !
0A
1@
1,
09
13
0<
16
04
0=
18
07
0:
1:
0(
0+
1+
#303000
b1111 !
1A
0,
1=
1(
#304000
b11 "
b111 !
b11 !
b1 !
b0 !
0A
0@
0?
0>
1E
1,
19
03
06
14
08
17
1<
04
07
0<
0:
0+
#305000
b1 !
1A
0,
0=
09
13
14
0(
1<
1=
1(
#306000
b11 !
b10 !
0A
1@
1,
#307000
b11 !
1A
0,
19
0<
0=
0(
#308000
b111 !
b101 !
b100 !
0A
0@
1?
1,
1=
03
16
04
06
14
17
1(
07
1<
1:
0<
0:
1+
0+
#309000
b101 !
1A
0,
0=
09
13
1<
16
04
0(
1=
17
0<
0=
1(
0(
#310000
b111 !
b110 !
0A
1@
1,
1=
1(
#311000
b111 !
1A
0,
0=
19
1:
0(
1+
#312000
b1111 !
b1011 !
b1001 !
b1000 !
0A
0@
0?
1>
1,
1=
03
06
14
18
07
04
08
17
1;
1(
0;
0=
1=
0(
1(
#313000
b1001 !
1A
0,
0=
09
13
0:
14
0(
1:
0+
1+
#314000
b1011 !
b1010 !
0A
1@
1,
1=
1(
#315000
b1011 !
1A
0,
0=
19
1<
0(
1=
1(
#316000
b1111 !
b1101 !
b1100 !
0A
0@
1?
1,
03
16
04
06
14
18
07
0<
08
17
1;
1<
0;
0=
1=
0(
1(
#317000
b1101 !
1A
0,
09
13
0<
16
04
0=
18
07
0:
1:
0(
0+
1+
#318000
b1111 !
b1110 !
0A
1@
1,
1=
1(
#319000
b1111 !
1A
0,
0=
19
0(
#320000
b111 "
b101 "
b100 "
b111 !
b11 !
b1 !
b0 !
0A
0@
0?
0>
0E
0D
1C
1,
09
03
06
08
17
15
0:
05
14
07
1:
0+
1<
0:
1+
1=
0+
1(
#321000
b1 !
1A
0,
#322000
b11 !
b10 !
0A
1@
1,
19
0<
0=
0(
#323000
b11 !
1A
0,
1=
1(
#324000
b111 !
b101 !
b100 !
0A
0@
1?
1,
0=
09
16
04
17
0(
#325000
b101 !
1A
0,
1=
1(
#326000
b111 !
b110 !
0A
1@
1,
0=
19
1:
0(
1+
#327000
b111 !
1A
0,
1=
1(
#328000
b1111 !
b1011 !
b1001 !
b1000 !
0A
0@
0?
1>
1,
0=
09
06
14
18
07
1;
08
17
0(
0;
#329000
b1001 !
1A
0,
1=
1(
#330000
b1011 !
b1010 !
0A
1@
1,
0=
19
1<
0(
1=
1(
#331000
b1011 !
1A
0,
#332000
b1111 !
b1101 !
b1100 !
0A
0@
1?
1,
09
16
04
0<
0:
18
07
0=
1:
0+
0(
1+
#333000
b1101 !
1A
0,
1=
1(
#334000
b1111 !
b1110 !
0A
1@
1,
0=
19
0(
#335000
b1111 !
1A
0,
1=
1(
#336000
b101 "
b111 !
b11 !
b1 !
b0 !
0A
0@
0?
0>
1E
1,
09
06
14
08
17
07
1<
0:
0+
#337000
b1 !
1A
0,
19
0<
0=
0(
#338000
b11 !
b10 !
0A
1@
1,
1=
1(
#339000
b11 !
1A
0,
0=
09
13
1<
15
04
0(
1=
17
0<
0=
1(
0(
#340000
b111 !
b101 !
b100 !
0A
0@
1?
1,
1=
03
16
14
05
04
1:
1(
0:
1+
0+
#341000
b101 !
1A
0,
0=
19
1:
0(
1+
#342000
b111 !
b110 !
0A
1@
1,
1=
1(
#343000
b111 !
1A
0,
0=
09
13
0:
15
14
0(
1:
0+
1+
#344000
b1111 !
b1011 !
b1001 !
b1000 !
0A
0@
0?
1>
1,
1=
03
06
04
18
07
05
14
1(
08
17
1;
0;
0=
1=
0(
1(
#345000
b1001 !
1A
0,
0=
19
1<
0(
1=
1(
#346000
b1011 !
b1010 !
0A
1@
1,
#347000
b1011 !
1A
0,
09
13
0<
15
04
0=
18
07
0:
1:
0(
0+
1+
#348000
b1111 !
b1101 !
b1100 !
0A
0@
1?
1,
1=
03
16
14
05
04
1;
1(
0;
0=
1=
0(
1(
#349000
b1101 !
1A
0,
0=
19
0(
#350000
b1111 !
b1110 !
0A
1@
1,
1=
1(
