simulation/qsim/ULA.msim.vcd
$comment
	File created using the following command:
		vcd file ULA.msim.vcd -direction
$end
$date
	Wed Oct 26 15:25:19 2016
$end
$version
	ModelSim Version 10.1d
$end
$timescale
	1ps
$end
$scope module somador_vlg_vec_tst $end
$var reg 4 ! A [3:0] $end
$var reg 4 " B [3:0] $end
$var reg 1 # S $end
$var wire 1 $ F [3] $end
$var wire 1 % F [2] $end
$var wire 1 & F [1] $end
$var wire 1 ' F [0] $end
$var wire 1 ( overflow $end
$var wire 1 ) sampler $end
$scope module i1 $end
$var wire 1 * gnd $end
$var wire 1 + vcc $end
$var wire 1 , unknown $end
$var tri1 1 - devclrn $end
$var tri1 1 . devpor $end
$var tri1 1 / devoe $end
$var wire 1 0 S~combout $end
$var wire 1 1 inst|inst3~0_combout $end
$var wire 1 2 inst|inst2~combout $end
$var wire 1 3 inst1|inst1~0_combout $end
$var wire 1 4 inst2|inst1~0_combout $end
$var wire 1 5 inst4~0_combout $end
$var wire 1 6 inst3|inst5~0_combout $end
$var wire 1 7 inst2|inst5~0_combout $end
$var wire 1 8 inst1|inst5~combout $end
$var wire 1 9 inst|inst5~0_combout $end
$var wire 1 : A~combout [3] $end
$var wire 1 ; A~combout [2] $end
$var wire 1 < A~combout [1] $end
$var wire 1 = A~combout [0] $end
$var wire 1 > B~combout [3] $end
$var wire 1 ? B~combout [2] $end
$var wire 1 @ B~combout [1] $end
$var wire 1 A B~combout [0] $end
$var wire 1 B inst5 [3] $end
$var wire 1 C inst5 [2] $end
$var wire 1 D inst5 [1] $end
$var wire 1 E inst5 [0] $end
$upscope $end
$upscope $end
$enddefinitions $end
#0
$dumpvars
b0 !
b0 "
0#
0'
0&
0%
0$
0(
x)
0*
1+
x,
1-
1.
1/
00
01
02
03
04
05
06
07
08
09
0=
0<
0;
0:
0A
0@
0?
0>
zE
0D
zC
zB
$end
#1000
b1 !
1=
0)
19
1'
#2000
b11 !
b10 !
0=
1<
1)
09
18
0'
1&
#3000
b11 !
1=
0)
19
1'
#4000
b111 !
b101 !
b100 !
0=
0<
1;
1)
09
08
17
0'
0&
1%
#5000
b101 !
1=
0)
19
1'
#6000
b111 !
b110 !
0=
1<
1)
09
18
0'
1&
#7000
b111 !
1=
0)
19
1'
#8000
b1111 !
b1011 !
b1001 !
b1000 !
0=
0<
0;
1:
1)
09
08
07
16
0'
0&
0%
1$
#9000
b1001 !
1=
0)
19
1'
#10000
b1011 !
b1010 !
0=
1<
1)
09
18
0'
1&
#11000
b1011 !
1=
0)
19
1'
#12000
b1111 !
b1101 !
b1100 !
0=
0<
1;
1)
09
08
17
0'
0&
1%
#13000
b1101 !
1=
0)
19
1'
#14000
b1111 !
b1110 !
0=
1<
1)
09
18
0'
1&
#15000
b1111 !
1=
0)
19
1'
#16000
b1 "
b111 !
b11 !
b1 !
b0 !
0=
0<
0;
0:
1A
1)
08
07
06
0&
0%
0$
#17000
b1 !
1=
0)
09
11
18
0'
1&
#18000
b11 !
b10 !
0=
1<
1)
19
01
08
13
18
03
17
1'
0&
07
1&
1%
0%
#19000
b11 !
1=
0)
09
11
08
13
0'
17
0&
1%
#20000
b111 !
b101 !
b100 !
0=
0<
1;
1)
19
01
18
03
07
14
08
17
04
16
15
1'
1&
0%
06
05
0&
1%
1$
1(
0$
0(
#21000
b101 !
1=
0)
09
11
18
0'
1&
#22000
b111 !
b110 !
0=
1<
1)
19
01
08
13
18
03
07
14
1'
0&
17
04
16
15
1&
0%
06
05
1%
1$
1(
0$
0(
#23000
b111 !
1=
0)
09
11
08
13
0'
07
14
0&
16
15
0%
1$
1(
#24000
b1111 !
b1011 !
b1001 !
b1000 !
0=
0<
0;
1:
1)
19
01
18
03
17
04
06
05
08
07
16
1'
1&
1%
0$
0(
0&
0%
1$
#25000
b1001 !
1=
0)
09
11
18
0'
1&
#26000
b1011 !
b1010 !
0=
1<
1)
19
01
08
13
18
03
17
1'
0&
07
1&
1%
0%
#27000
b1011 !
1=
0)
09
11
08
13
0'
17
0&
1%
#28000
b1111 !
b1101 !
b1100 !
0=
0<
1;
1)
19
01
18
03
07
14
08
17
04
06
1'
1&
0%
16
0&
1%
0$
1$
#29000
b1101 !
1=
0)
09
11
18
0'
1&
#30000
b1111 !
b1110 !
0=
1<
1)
19
01
08
13
18
03
07
14
1'
0&
17
04
06
1&
0%
16
1%
0$
1$
#31000
b1111 !
1=
0)
09
11
08
13
0'
07
14
0&
06
0%
0$
#32000
b11 "
b10 "
b111 !
b11 !
b1 !
b0 !
0=
0<
0;
0:
0A
1@
1)
01
18
03
17
04
16
15
1D
07
06
05
1&
1%
1$
1(
0%
0$
0(
#33000
b1 !
1=
0)
19
1'
#34000
b11 !
b10 !
0=
1<
1)
09
08
13
17
0'
0&
1%
#35000
b11 !
1=
0)
19
1'
#36000
b111 !
b101 !
b100 !
0=
0<
1;
1)
09
18
03
07
14
17
04
16
15
0'
1&
0%
06
05
1%
1$
1(
0$
0(
#37000
b101 !
1=
0)
19
1'
#38000
b111 !
b110 !
0=
1<
1)
09
08
13
07
14
0'
0&
16
15
0%
1$
1(
#39000
b111 !
1=
0)
19
1'
#40000
b1111 !
b1011 !
b1001 !
b1000 !
0=
0<
0;
1:
1)
09
18
03
17
04
06
05
07
16
0'
1&
1%
0$
0(
0%
1$
#41000
b1001 !
1=
0)
19
1'
#42000
b1011 !
b1010 !
0=
1<
1)
09
08
13
17
0'
0&
1%
#43000
b1011 !
1=
0)
19
1'
#44000
b1111 !
b1101 !
b1100 !
0=
0<
1;
1)
09
18
03
07
14
17
04
06
0'
1&
0%
16
1%
0$
1$
#45000
b1101 !
1=
0)
19
1'
#46000
b1111 !
b1110 !
0=
1<
1)
09
08
13
07
14
0'
0&
06
0%
0$
#47000
b1111 !
1=
0)
19
1'
#48000
b11 "
b111 !
b11 !
b1 !
b0 !
0=
0<
0;
0:
1A
1)
18
03
17
04
16
15
07
06
05
1&
1%
1$
1(
0%
0$
0(
#49000
b1 !
1=
0)
09
11
08
13
0'
17
0&
1%
#50000
b11 !
b10 !
0=
1<
1)
19
01
18
08
1'
1&
0&
#51000
b11 !
1=
0)
09
11
18
0'
1&
#52000
b111 !
b101 !
b100 !
0=
0<
1;
1)
19
01
08
07
14
18
03
16
15
1'
0&
0%
17
04
1&
1$
1(
06
05
1%
0$
0(
#53000
b101 !
1=
0)
09
11
08
13
0'
07
14
0&
16
15
0%
1$
1(
#54000
b111 !
b110 !
0=
1<
1)
19
01
18
08
1'
1&
0&
#55000
b111 !
1=
0)
09
11
18
0'
1&
#56000
b1111 !
b1011 !
b1001 !
b1000 !
0=
0<
0;
1:
1)
19
01
08
17
04
06
05
18
03
16
1'
0&
1%
0$
0(
07
1&
1$
0%
#57000
b1001 !
1=
0)
09
11
08
13
0'
17
0&
1%
#58000
b1011 !
b1010 !
0=
1<
1)
19
01
18
08
1'
1&
0&
#59000
b1011 !
1=
0)
09
11
18
0'
1&
#60000
b1111 !
b1101 !
b1100 !
0=
0<
1;
1)
19
01
08
07
14
18
03
06
1'
0&
0%
17
04
1&
0$
16
1%
1$
#61000
b1101 !
1=
0)
09
11
08
13
0'
07
14
0&
06
0%
0$
#62000
b1111 !
b1110 !
0=
1<
1)
19
01
18
08
1'
1&
0&
#63000
b1111 !
1=
0)
09
11
18
0'
1&
#64000
b111 "
b101 "
b100 "
b111 !
b11 !
b1 !
b0 !
0=
0<
0;
0:
0A
0@
1?
1)
01
08
16
15
0D
03
0&
1$
1(
17
04
06
05
1%
0$
0(
#65000
b1 !
1=
0)
19
1'
#66000
b11 !
b10 !
0=
1<
1)
09
18
0'
1&
#67000
b11 !
1=
0)
19
1'
#68000
b111 !
b101 !
b100 !
0=
0<
1;
1)
09
08
07
14
16
15
0'
0&
0%
1$
1(
#69000
b101 !
1=
0)
19
1'
#70000
b111 !
b110 !
0=
1<
1)
09
18
0'
1&
#71000
b111 !
1=
0)
19
1'
#72000
b1111 !
b1011 !
b1001 !
b1000 !
0=
0<
0;
1:
1)
09
08
17
04
06
05
16
0'
0&
1%
0$
0(
1$
#73000
b1001 !
1=
0)
19
1'
#74000
b1011 !
b1010 !
0=
1<
1)
09
18
0'
1&
#75000
b1011 !
1=
0)
19
1'
#76000
b1111 !
b1101 !
b1100 !
0=
0<
1;
1)
09
08
07
14
06
0'
0&
0%
0$
#77000
b1101 !
1=
0)
19
1'
#78000
b1111 !
b1110 !
0=
1<
1)
09
18
0'
1&
#79000
b1111 !
1=
0)
19
1'
#80000
b101 "
b111 !
b11 !
b1 !
b0 !
0=
0<
0;
0:
1A
1)
08
17
04
16
15
06
05
0&
1%
1$
1(
0$
0(
#81000
b1 !
1=
0)
09
11
18
0'
1&
#82000
b11 !
b10 !
0=
1<
1)
19
01
08
13
18
03
07
14
1'
0&
17
04
16
15
1&
0%
06
05
1%
1$
1(
0$
0(
#83000
b11 !
1=
0)
09
11
08
13
0'
07
14
0&
16
15
0%
1$
1(
#84000
b111 !
b101 !
b100 !
0=
0<
1;
1)
19
01
18
03
17
08
07
1'
1&
1%
0&
0%
#85000
b101 !
1=
0)
09
11
18
0'
1&
#86000
b111 !
b110 !
0=
1<
1)
19
01
08
13
18
03
17
1'
0&
07
1&
1%
0%
#87000
b111 !
1=
0)
09
11
08
13
0'
17
0&
1%
#88000
b1111 !
b1011 !
b1001 !
b1000 !
0=
0<
0;
1:
1)
19
01
18
03
07
06
05
08
17
04
1'
1&
0%
0$
0(
16
0&
1%
1$
#89000
b1001 !
1=
0)
09
11
18
0'
1&
#90000
b1011 !
b1010 !
0=
1<
1)
19
01
08
13
18
03
07
14
1'
0&
17
04
06
1&
0%
16
1%
0$
1$
#91000
b1011 !
1=
0)
09
11
08
13
0'
07
14
0&
06
0%
0$
#92000
b1111 !
b1101 !
b1100 !
0=
0<
1;
1)
19
01
18
03
17
08
07
1'
1&
1%
0&
0%
#93000
b1101 !
1=
0)
09
11
18
0'
1&
#94000
b1111 !
b1110 !
0=
1<
1)
19
01
08
13
18
03
17
1'
0&
07
1&
1%
0%
#95000
b1111 !
1=
0)
09
11
08
13
0'
17
0&
1%
#96000
b111 "
b110 "
b111 !
b11 !
b1 !
b0 !
0=
0<
0;
0:
0A
1@
1)
01
18
03
07
16
15
1D
17
04
1&
0%
1$
1(
06
05
1%
0$
0(
#97000
b1 !
1=
0)
19
1'
#98000
b11 !
b10 !
0=
1<
1)
09
08
13
07
14
0'
0&
16
15
0%
1$
1(
#99000
b11 !
1=
0)
19
1'
#100000
b111 !
b101 !
b100 !
0=
0<
1;
1)
09
18
03
17
07
0'
1&
1%
0%
#101000
b101 !
1=
0)
19
1'
#102000
b111 !
b110 !
0=
1<
1)
09
08
13
17
0'
0&
1%
#103000
b111 !
1=
0)
19
1'
#104000
b1111 !
b1011 !
b1001 !
b1000 !
0=
0<
0;
1:
1)
09
18
03
07
06
05
17
04
0'
1&
0%
0$
0(
16
1%
1$
#105000
b1001 !
1=
0)
19
1'
#106000
b1011 !
b1010 !
0=
1<
1)
09
08
13
07
14
0'
0&
06
0%
0$
#107000
b1011 !
1=
0)
19
1'
#108000
b1111 !
b1101 !
b1100 !
0=
0<
1;
1)
09
18
03
17
07
0'
1&
1%
0%
#109000
b1101 !
1=
0)
19
1'
#110000
b1111 !
b1110 !
0=
1<
1)
09
08
13
17
0'
0&
1%
#111000
b1111 !
1=
0)
19
1'
#112000
b111 "
b111 !
b11 !
b1 !
b0 !
0=
0<
0;
0:
1A
1)
18
03
07
16
15
17
04
1&
0%
1$
1(
06
05
1%
0$
0(
#113000
b1 !
1=
0)
09
11
08
13
0'
07
14
0&
16
15
0%
1$
1(
#114000
b11 !
b10 !
0=
1<
1)
19
01
18
08
1'
1&
0&
#115000
b11 !
1=
0)
09
11
18
0'
1&
#116000
b111 !
b101 !
b100 !
0=
0<
1;
1)
19
01
08
17
18
03
1'
0&
1%
07
1&
0%
#117000
b101 !
1=
0)
09
11
08
13
0'
17
0&
1%
#118000
b111 !
b110 !
0=
1<
1)
19
01
18
08
1'
1&
0&
#119000
b111 !
1=
0)
09
11
18
0'
1&
#120000
b1111 !
b1011 !
b1001 !
b1000 !
0=
0<
0;
1:
1)
19
01
08
07
06
05
18
03
1'
0&
0%
0$
0(
17
04
1&
16
1%
1$
#121000
b1001 !
1=
0)
09
11
08
13
0'
07
14
0&
06
0%
0$
#122000
b1011 !
b1010 !
0=
1<
1)
19
01
18
08
1'
1&
0&
#123000
b1011 !
1=
0)
09
11
18
0'
1&
#124000
b1111 !
b1101 !
b1100 !
0=
0<
1;
1)
19
01
08
17
18
03
1'
0&
1%
07
1&
0%
#125000
b1101 !
1=
0)
09
11
08
13
0'
17
0&
1%
#126000
b1111 !
b1110 !
0=
1<
1)
19
01
18
08
1'
1&
0&
#127000
b1111 !
1=
0)
09
11
18
0'
1&
#128000
b1111 "
b1011 "
b1001 "
b1000 "
b111 !
b11 !
b1 !
b0 !
0=
0<
0;
0:
0A
0@
0?
1>
1)
01
08
04
0D
03
16
0&
07
1$
0%
#129000
b1 !
1=
0)
19
1'
#130000
b11 !
b10 !
0=
1<
1)
09
18
0'
1&
#131000
b11 !
1=
0)
19
1'
#132000
b111 !
b101 !
b100 !
0=
0<
1;
1)
09
08
17
0'
0&
1%
#133000
b101 !
1=
0)
19
1'
#134000
b111 !
b110 !
0=
1<
1)
09
18
0'
1&
#135000
b111 !
1=
0)
19
1'
#136000
b1111 !
b1011 !
b1001 !
b1000 !
0=
0<
0;
1:
1)
09
08
07
06
15
0'
0&
0%
0$
1(
#137000
b1001 !
1=
0)
19
1'
#138000
b1011 !
b1010 !
0=
1<
1)
09
18
0'
1&
#139000
b1011 !
1=
0)
19
1'
#140000
b1111 !
b1101 !
b1100 !
0=
0<
1;
1)
09
08
17
0'
0&
1%
#141000
b1101 !
1=
0)
19
1'
#142000
b1111 !
b1110 !
0=
1<
1)
09
18
0'
1&
#143000
b1111 !
1=
0)
19
1'
#144000
b1001 "
b111 !
b11 !
b1 !
b0 !
0=
0<
0;
0:
1A
1)
08
07
16
05
0&
0%
1$
0(
#145000
b1 !
1=
0)
09
11
18
0'
1&
#146000
b11 !
b10 !
0=
1<
1)
19
01
08
13
18
03
17
1'
0&
07
1&
1%
0%
#147000
b11 !
1=
0)
09
11
08
13
0'
17
0&
1%
#148000
b111 !
b101 !
b100 !
0=
0<
1;
1)
19
01
18
03
07
14
08
17
04
06
1'
1&
0%
16
0&
1%
0$
1$
#149000
b101 !
1=
0)
09
11
18
0'
1&
#150000
b111 !
b110 !
0=
1<
1)
19
01
08
13
18
03
07
14
1'
0&
17
04
06
1&
0%
16
1%
0$
1$
#151000
b111 !
1=
0)
09
11
08
13
0'
07
14
0&
06
0%
0$
#152000
b1111 !
b1011 !
b1001 !
b1000 !
0=
0<
0;
1:
1)
19
01
18
03
17
04
16
08
07
06
15
1'
1&
1%
1$
0&
0%
0$
1(
#153000
b1001 !
1=
0)
09
11
18
0'
1&
#154000
b1011 !
b1010 !
0=
1<
1)
19
01
08
13
18
03
17
1'
0&
07
1&
1%
0%
#155000
b1011 !
1=
0)
09
11
08
13
0'
17
0&
1%
#156000
b1111 !
b1101 !
b1100 !
0=
0<
1;
1)
19
01
18
03
07
14
08
17
04
16
05
1'
1&
0%
06
15
0&
1%
1$
0(
0$
1(
#157000
b1101 !
1=
0)
09
11
18
0'
1&
#158000
b1111 !
b1110 !
0=
1<
1)
19
01
08
13
18
03
07
14
1'
0&
17
04
16
05
1&
0%
06
15
1%
1$
0(
0$
1(
#159000
b1111 !
1=
0)
09
11
08
13
0'
07
14
0&
16
05
0%
1$
0(
#160000
b1011 "
b1010 "
b111 !
b11 !
b1 !
b0 !
0=
0<
0;
0:
0A
1@
1)
01
18
03
17
04
06
1D
07
16
1&
1%
0$
0%
1$
#161000
b1 !
1=
0)
19
1'
#162000
b11 !
b10 !
0=
1<
1)
09
08
13
17
0'
0&
1%
#163000
b11 !
1=
0)
19
1'
#164000
b111 !
b101 !
b100 !
0=
0<
1;
1)
09
18
03
07
14
17
04
06
0'
1&
0%
16
1%
0$
1$
#165000
b101 !
1=
0)
19
1'
#166000
b111 !
b110 !
0=
1<
1)
09
08
13
07
14
0'
0&
06
0%
0$
#167000
b111 !
1=
0)
19
1'
#168000
b1111 !
b1011 !
b1001 !
b1000 !
0=
0<
0;
1:
1)
09
18
03
17
04
16
07
06
15
0'
1&
1%
1$
0%
0$
1(
#169000
b1001 !
1=
0)
19
1'
#170000
b1011 !
b1010 !
0=
1<
1)
09
08
13
17
0'
0&
1%
#171000
b1011 !
1=
0)
19
1'
#172000
b1111 !
b1101 !
b1100 !
0=
0<
1;
1)
09
18
03
07
14
17
04
16
05
0'
1&
0%
06
15
1%
1$
0(
0$
1(
#173000
b1101 !
1=
0)
19
1'
#174000
b1111 !
b1110 !
0=
1<
1)
09
08
13
07
14
0'
0&
16
05
0%
1$
0(
#175000
b1111 !
1=
0)
19
1'
#176000
b1011 "
b111 !
b11 !
b1 !
b0 !
0=
0<
0;
0:
1A
1)
18
03
17
04
06
07
16
1&
1%
0$
0%
1$
#177000
b1 !
1=
0)
09
11
08
13
0'
17
0&
1%
#178000
b11 !
b10 !
0=
1<
1)
19
01
18
08
1'
1&
0&
#179000
b11 !
1=
0)
09
11
18
0'
1&
#180000
b111 !
b101 !
b100 !
0=
0<
1;
1)
19
01
08
07
14
18
03
06
1'
0&
0%
17
04
1&
0$
16
1%
1$
#181000
b101 !
1=
0)
09
11
08
13
0'
07
14
0&
06
0%
0$
#182000
b111 !
b110 !
0=
1<
1)
19
01
18
08
1'
1&
0&
#183000
b111 !
1=
0)
09
11
18
0'
1&
#184000
b1111 !
b1011 !
b1001 !
b1000 !
0=
0<
0;
1:
1)
19
01
08
17
04
16
18
03
06
15
1'
0&
1%
1$
07
1&
0$
1(
0%
#185000
b1001 !
1=
0)
09
11
08
13
0'
17
0&
1%
#186000
b1011 !
b1010 !
0=
1<
1)
19
01
18
08
1'
1&
0&
#187000
b1011 !
1=
0)
09
11
18
0'
1&
#188000
b1111 !
b1101 !
b1100 !
0=
0<
1;
1)
19
01
08
07
14
18
03
16
05
1'
0&
0%
17
04
1&
1$
0(
06
15
1%
0$
1(
#189000
b1101 !
1=
0)
09
11
08
13
0'
07
14
0&
16
05
0%
1$
0(
#190000
b1111 !
b1110 !
0=
1<
1)
19
01
18
08
1'
1&
0&
#191000
b1111 !
1=
0)
09
11
18
0'
1&
#192000
b1111 "
b1101 "
b1100 "
b111 !
b11 !
b1 !
b0 !
0=
0<
0;
0:
0A
0@
1?
1)
01
08
06
0D
03
0&
0$
17
04
16
1%
1$
#193000
b1 !
1=
0)
19
1'
#194000
b11 !
b10 !
0=
1<
1)
09
18
0'
1&
#195000
b11 !
1=
0)
19
1'
#196000
b111 !
b101 !
b100 !
0=
0<
1;
1)
09
08
07
14
06
0'
0&
0%
0$
#197000
b101 !
1=
0)
19
1'
#198000
b111 !
b110 !
0=
1<
1)
09
18
0'
1&
#199000
b111 !
1=
0)
19
1'
#200000
b1111 !
b1011 !
b1001 !
b1000 !
0=
0<
0;
1:
1)
09
08
17
04
16
06
15
0'
0&
1%
1$
0$
1(
#201000
b1001 !
1=
0)
19
1'
#202000
b1011 !
b1010 !
0=
1<
1)
09
18
0'
1&
#203000
b1011 !
1=
0)
19
1'
#204000
b1111 !
b1101 !
b1100 !
0=
0<
1;
1)
09
08
07
14
16
05
0'
0&
0%
1$
0(
#205000
b1101 !
1=
0)
19
1'
#206000
b1111 !
b1110 !
0=
1<
1)
09
18
0'
1&
#207000
b1111 !
1=
0)
19
1'
#208000
b1101 "
b111 !
b11 !
b1 !
b0 !
0=
0<
0;
0:
1A
1)
08
17
04
06
16
0&
1%
0$
1$
#209000
b1 !
1=
0)
09
11
18
0'
1&
#210000
b11 !
b10 !
0=
1<
1)
19
01
08
13
18
03
07
14
1'
0&
17
04
06
1&
0%
16
1%
0$
1$
#211000
b11 !
1=
0)
09
11
08
13
0'
07
14
0&
06
0%
0$
#212000
b111 !
b101 !
b100 !
0=
0<
1;
1)
19
01
18
03
17
08
07
1'
1&
1%
0&
0%
#213000
b101 !
1=
0)
09
11
18
0'
1&
#214000
b111 !
b110 !
0=
1<
1)
19
01
08
13
18
03
17
1'
0&
07
1&
1%
0%
#215000
b111 !
1=
0)
09
11
08
13
0'
17
0&
1%
#216000
b1111 !
b1011 !
b1001 !
b1000 !
0=
0<
0;
1:
1)
19
01
18
03
07
16
08
17
04
1'
1&
0%
1$
06
15
0&
1%
0$
1(
#217000
b1001 !
1=
0)
09
11
18
0'
1&
#218000
b1011 !
b1010 !
0=
1<
1)
19
01
08
13
18
03
07
14
1'
0&
17
04
16
05
1&
0%
06
15
1%
1$
0(
0$
1(
#219000
b1011 !
1=
0)
09
11
08
13
0'
07
14
0&
16
05
0%
1$
0(
#220000
b1111 !
b1101 !
b1100 !
0=
0<
1;
1)
19
01
18
03
17
08
07
1'
1&
1%
0&
0%
#221000
b1101 !
1=
0)
09
11
18
0'
1&
#222000
b1111 !
b1110 !
0=
1<
1)
19
01
08
13
18
03
17
1'
0&
07
1&
1%
0%
#223000
b1111 !
1=
0)
09
11
08
13
0'
17
0&
1%
#224000
b1111 "
b1110 "
b111 !
b11 !
b1 !
b0 !
0=
0<
0;
0:
0A
1@
1)
01
18
03
07
06
1D
17
04
1&
0%
0$
16
1%
1$
#225000
b1 !
1=
0)
19
1'
#226000
b11 !
b10 !
0=
1<
1)
09
08
13
07
14
0'
0&
06
0%
0$
#227000
b11 !
1=
0)
19
1'
#228000
b111 !
b101 !
b100 !
0=
0<
1;
1)
09
18
03
17
07
0'
1&
1%
0%
#229000
b101 !
1=
0)
19
1'
#230000
b111 !
b110 !
0=
1<
1)
09
08
13
17
0'
0&
1%
#231000
b111 !
1=
0)
19
1'
#232000
b1111 !
b1011 !
b1001 !
b1000 !
0=
0<
0;
1:
1)
09
18
03
07
16
17
04
0'
1&
0%
1$
06
15
1%
0$
1(
#233000
b1001 !
1=
0)
19
1'
#234000
b1011 !
b1010 !
0=
1<
1)
09
08
13
07
14
0'
0&
16
05
0%
1$
0(
#235000
b1011 !
1=
0)
19
1'
#236000
b1111 !
b1101 !
b1100 !
0=
0<
1;
1)
09
18
03
17
07
0'
1&
1%
0%
#237000
b1101 !
1=
0)
19
1'
#238000
b1111 !
b1110 !
0=
1<
1)
09
08
13
17
0'
0&
1%
#239000
b1111 !
1=
0)
19
1'
#240000
b1111 "
b111 !
b11 !
b1 !
b0 !
0=
0<
0;
0:
1A
1)
18
03
07
06
17
04
1&
0%
0$
16
1%
1$
#241000
b1 !
1=
0)
09
11
08
13
0'
07
14
0&
06
0%
0$
#242000
b11 !
b10 !
0=
1<
1)
19
01
18
08
1'
1&
0&
#243000
b11 !
1=
0)
09
11
18
0'
1&
#244000
b111 !
b101 !
b100 !
0=
0<
1;
1)
19
01
08
17
18
03
1'
0&
1%
07
1&
0%
#245000
b101 !
1=
0)
09
11
08
13
0'
17
0&
1%
#246000
b111 !
b110 !
0=
1<
1)
19
01
18
08
1'
1&
0&
#247000
b111 !
1=
0)
09
11
18
0'
1&
#248000
b1111 !
b1011 !
b1001 !
b1000 !
0=
0<
0;
1:
1)
19
01
08
07
16
18
03
1'
0&
0%
1$
17
04
1&
06
15
1%
0$
1(
#249000
b1001 !
1=
0)
09
11
08
13
0'
07
14
0&
16
05
0%
1$
0(
#250000
b1011 !
b1010 !
0=
1<
1)
19
01
18
08
1'
1&
0&
#251000
b1011 !
1=
0)
09
11
18
0'
1&
#252000
b1111 !
b1101 !
b1100 !
0=
0<
1;
1)
19
01
08
17
18
03
1'
0&
1%
07
1&
0%
#253000
b1101 !
1=
0)
09
11
08
13
0'
17
0&
1%
#254000
b1111 !
b1110 !
0=
1<
1)
19
01
18
08
1'
1&
0&
#255000
b1111 !
1=
0)
09
11
18
0'
1&
#256000
1#
b111 "
b11 "
b1 "
b0 "
b111 !
b11 !
b1 !
b0 !
10
0=
0<
0;
0:
0A
0@
0?
0>
1)
07
06
12
01
08
0%
0$
0&
#257000
b1 !
1=
0)
19
11
1'
#258000
b11 !
b10 !
0=
1<
1)
09
01
18
0'
1&
#259000
b11 !
1=
0)
19
11
1'
#260000
b111 !
b101 !
b100 !
0=
0<
1;
1)
09
01
08
17
0'
0&
1%
#261000
b101 !
1=
0)
19
11
1'
#262000
b111 !
b110 !
0=
1<
1)
09
01
18
0'
1&
#263000
b111 !
1=
0)
19
11
1'
#264000
b1111 !
b1011 !
b1001 !
b1000 !
0=
0<
0;
1:
1)
09
01
08
07
16
0'
0&
0%
1$
#265000
b1001 !
1=
0)
19
11
1'
#266000
b1011 !
b1010 !
0=
1<
1)
09
01
18
0'
1&
#267000
b1011 !
1=
0)
19
11
1'
#268000
b1111 !
b1101 !
b1100 !
0=
0<
1;
1)
09
01
08
17
0'
0&
1%
#269000
b1101 !
1=
0)
19
11
1'
#270000
b1111 !
b1110 !
0=
1<
1)
09
01
18
0'
1&
#271000
b1111 !
1=
0)
19
11
1'
#272000
b1 "
b111 !
b11 !
b1 !
b0 !
0=
0<
0;
0:
1A
1)
01
08
07
06
02
18
03
0&
0%
0$
17
04
1&
16
1%
1$
#273000
b1 !
1=
0)
09
11
08
13
0'
07
14
0&
06
0%
0$
#274000
b11 !
b10 !
0=
1<
1)
19
01
18
08
1'
1&
0&
#275000
b11 !
1=
0)
09
11
18
0'
1&
#276000
b111 !
b101 !
b100 !
0=
0<
1;
1)
19
01
08
17
18
03
1'
0&
1%
07
1&
0%
#277000
b101 !
1=
0)
09
11
08
13
0'
17
0&
1%
#278000
b111 !
b110 !
0=
1<
1)
19
01
18
08
1'
1&
0&
#279000
b111 !
1=
0)
09
11
18
0'
1&
#280000
b1111 !
b1011 !
b1001 !
b1000 !
0=
0<
0;
1:
1)
19
01
08
07
16
18
03
1'
0&
0%
1$
17
04
1&
06
15
1%
0$
1(
#281000
b1001 !
1=
0)
09
11
08
13
0'
07
14
0&
16
05
0%
1$
0(
#282000
b1011 !
b1010 !
0=
1<
1)
19
01
18
08
1'
1&
0&
#283000
b1011 !
1=
0)
09
11
18
0'
1&
#284000
b1111 !
b1101 !
b1100 !
0=
0<
1;
1)
19
01
08
17
18
03
1'
0&
1%
07
1&
0%
#285000
b1101 !
1=
0)
09
11
08
13
0'
17
0&
1%
#286000
b1111 !
b1110 !
0=
1<
1)
19
01
18
08
1'
1&
0&
#287000
b1111 !
1=
0)
09
11
18
0'
1&
#288000
b11 "
b10 "
b111 !
b11 !
b1 !
b0 !
0=
0<
0;
0:
0A
1@
1)
01
08
07
06
12
0D
18
03
0&
0%
0$
17
04
1&
16
1%
1$
#289000
b1 !
1=
0)
19
11
1'
#290000
b11 !
b10 !
0=
1<
1)
09
01
08
13
07
14
0'
0&
06
0%
0$
#291000
b11 !
1=
0)
19
11
1'
#292000
b111 !
b101 !
b100 !
0=
0<
1;
1)
09
01
18
03
17
07
0'
1&
1%
0%
#293000
b101 !
1=
0)
19
11
1'
#294000
b111 !
b110 !
0=
1<
1)
09
01
08
13
17
0'
0&
1%
#295000
b111 !
1=
0)
19
11
1'
#296000
b1111 !
b1011 !
b1001 !
b1000 !
0=
0<
0;
1:
1)
09
01
18
03
07
16
17
04
0'
1&
0%
1$
06
15
1%
0$
1(
#297000
b1001 !
1=
0)
19
11
1'
#298000
b1011 !
b1010 !
0=
1<
1)
09
01
08
13
07
14
0'
0&
16
05
0%
1$
0(
#299000
b1011 !
1=
0)
19
11
1'
#300000
b1111 !
b1101 !
b1100 !
0=
0<
1;
1)
09
01
18
03
17
07
0'
1&
1%
0%
#301000
b1101 !
1=
0)
19
11
1'
#302000
b1111 !
b1110 !
0=
1<
1)
09
01
08
13
17
0'
0&
1%
#303000
b1111 !
1=
0)
19
11
1'
#304000
b11 "
b111 !
b11 !
b1 !
b0 !
0=
0<
0;
0:
1A
1)
01
18
03
07
06
02
08
17
04
1&
0%
0$
16
0&
1%
1$
#305000
b1 !
1=
0)
09
11
18
0'
1&
#306000
b11 !
b10 !
0=
1<
1)
19
01
08
13
18
03
07
14
1'
0&
17
04
06
1&
0%
16
1%
0$
1$
#307000
b11 !
1=
0)
09
11
08
13
0'
07
14
0&
06
0%
0$
#308000
b111 !
b101 !
b100 !
0=
0<
1;
1)
19
01
18
03
17
08
07
1'
1&
1%
0&
0%
#309000
b101 !
1=
0)
09
11
18
0'
1&
#310000
b111 !
b110 !
0=
1<
1)
19
01
08
13
18
03
17
1'
0&
07
1&
1%
0%
#311000
b111 !
1=
0)
09
11
08
13
0'
17
0&
1%
#312000
b1111 !
b1011 !
b1001 !
b1000 !
0=
0<
0;
1:
1)
19
01
18
03
07
16
08
17
04
1'
1&
0%
1$
06
15
0&
1%
0$
1(
#313000
b1001 !
1=
0)
09
11
18
0'
1&
#314000
b1011 !
b1010 !
0=
1<
1)
19
01
08
13
18
03
07
14
1'
0&
17
04
16
05
1&
0%
06
15
1%
1$
0(
0$
1(
#315000
b1011 !
1=
0)
09
11
08
13
0'
07
14
0&
16
05
0%
1$
0(
#316000
b1111 !
b1101 !
b1100 !
0=
0<
1;
1)
19
01
18
03
17
08
07
1'
1&
1%
0&
0%
#317000
b1101 !
1=
0)
09
11
18
0'
1&
#318000
b1111 !
b1110 !
0=
1<
1)
19
01
08
13
18
03
17
1'
0&
07
1&
1%
0%
#319000
b1111 !
1=
0)
09
11
08
13
0'
17
0&
1%
#320000
b111 "
b101 "
b100 "
b111 !
b11 !
b1 !
b0 !
0=
0<
0;
0:
0A
0@
1?
1)
01
18
03
04
06
12
1D
08
13
07
16
1&
0$
17
0&
0%
1$
1%
#321000
b1 !
1=
0)
19
11
1'
#322000
b11 !
b10 !
0=
1<
1)
09
01
18
0'
1&
